Instance 	 Prediction 	 Time to predict 	 HTER 	 Time to retrain
1	0	0.002	0.118644	0.013
2	0.108644	0.002	0	0.006
3	0.0986441	0.001	0.227273	0.003
4	0.108644	0.001	0.6	0.003
5	0.138644	0.002	0.0833333	0.012
6	0.128644	0.001	0.166667	0.002
7	0.138644	0.001	0.384615	0.003
8	0.156667	0	0.3125	0.003
9	0.186667	0.001	0.294118	0.005
10	0.217273	0.003	0.368421	0.008
11	0.247273	0.002	0.392857	0.011
12	0.284118	0.003	0.135135	0.006
13	0.274118	0.003	0.5	0.005
14	0.284118	0.001	0.322581	0.004
15	0.3025	0.002	0.212121	0.004
16	0.2925	0.002	0.125	0.007
17	0.274118	0.001	0.265306	0.006
18	0.274118	0	0.529412	0.007
19	0.279712	0.001	0.184211	0.004
20	0.274118	0	0.173913	0.005
21	0.246289	0.001	0.265306	0.01
22	0.250306	0	0.486486	0.008
23	0.255306	0.002	0.263158	0.005
24	0.255306	0.001	0.466667	0.003
25	0.276972	0.001	0.538462	0.001
26	0.279472	0.001	0.25	0.002
27	0.276972	0.001	0.666667	0.006
28	0.279472	0.001	0.178571	0.005
29	0.276972	0.001	0.222222	0.003
30	0.27	0.001	0.388889	0.01
31	0.276972	0.001	0.62069	0.004
32	0.279472	0.002	0.333333	0.005
33	0.281972	0.002	0.363636	0.006
34	0.285306	0.002	0.28	0.004
35	0.285306	0.002	0.382353	0.008
36	0.29625	0.002	0.421053	0.009
37	0.3025	0.001	0.111111	0.004
38	0.29625	0.003	0.230769	0.003
39	0.285306	0.001	0.454545	0.001
40	0.29625	0	0.37037	0.007
41	0.3025	0.002	0.25	0.003
42	0.29625	0.002	0.387097	0.007
43	0.3025	0.001	0	0.002
44	0.29625	0.002	0.322581	0.01
45	0.3025	0.002	0.369565	0.01
46	0.306426	0.003	0.352941	0.003
47	0.30976	0.001	0.176471	0.004
48	0.306426	0.002	0.387755	0.01
49	0.30976	0.001	0.294118	0.004
50	0.308349	0.001	0.166667	0.004
51	0.305849	0.001	0.2	0.005
52	0.3025	0.001	0.289474	0.005
53	0.300987	0.001	0.222222	0.001
54	0.29625	0.001	0.409091	0.003
55	0.300987	0.002	0.484848	0.008
56	0.304574	0.002	0.5	0.012
57	0.306574	0.002	0.285714	0.006
58	0.304764	0.002	0.380952	0.004
59	0.306574	0.002	0.52	0.007
60	0.308574	0.003	0.285714	0.003
61	0.306574	0.001	0.3125	0.005
62	0.306574	0.002	0.230769	0.011
63	0.304764	0.001	0.192308	0.008
64	0.303213	0.005	0.272727	0.01
65	0.30118	0.002	0.190476	0.004
66	0.299286	0.001	0.6	0.006
67	0.30118	0.002	0.555556	0.004
68	0.303371	0.001	0.315789	0.008
69	0.303642	0.001	0.148936	0.008
70	0.301838	0.002	0.346939	0.021
71	0.303642	0.009	0.27027	0.007
72	0.301838	0.003	0.12	0.009
73	0.300282	0.003	0.416667	0.006
74	0.301949	0.002	0.45	0.006
75	0.303642	0.001	0.0769231	0.015
76	0.301838	0.001	0	0.004
77	0.300282	0.001	0.407407	0.001
78	0.301949	0	0.4	0.011
79	0.303642	0.001	0.45	0.005
80	0.305011	0.003	0.4	0.005
81	0.306574	0.002	0.28	0.009
82	0.304911	0.002	0.588235	0.011
83	0.306574	0.002	0.45	0.004
84	0.308574	0.002	0.315789	0.004
85	0.308574	0.003	0.346154	0.007
86	0.310849	0.003	0.275862	0.021
87	0.308574	0.002	0	0.004
88	0.306574	0.003	0.1	0.005
89	0.30502	0.003	0.294118	0.006
90	0.30492	0.002	0.380952	0.007
91	0.306165	0.002	0.294118	0.006
92	0.305872	0.004	0.384615	0.007
93	0.307301	0.002	0.28125	0.006
94	0.305872	0.003	0.291667	0.009
95	0.30546	0.002	0.473684	0.012
96	0.306597	0.002	0.571429	0.009
97	0.307847	0.002	0.538462	0.007
98	0.309097	0.002	0.644444	0.018
99	0.310471	0.001	0.157895	0.004
100	0.309097	0.002	0.75	0.011
