Instance 	 Prediction 	 Time to predict 	 HTER 	 Time to retrain
1	0	0.002	0.118644	0.016
2	0.108644	0.001	0	0.005
3	0.0986441	0	0.227273	0.002
4	0.108644	0.001	0.6	0.001
5	0.138644	0	0.0833333	0.006
6	0.128644	0.001	0.166667	0.001
7	0.138644	0.001	0.384615	0.002
8	0.156667	0.001	0.3125	0.002
9	0.186667	0.001	0.294118	0.002
10	0.217273	0	0.368421	0.003
11	0.247273	0	0.392857	0.006
12	0.284118	0	0.135135	0.004
13	0.274118	0.001	0.5	0.003
14	0.284118	0.001	0.322581	0.003
15	0.3025	0.001	0.212121	0.002
16	0.2925	0	0.125	0.007
17	0.274118	0.002	0.265306	0.005
18	0.274118	0.002	0.529412	0.008
19	0.279712	0.003	0.184211	0.006
20	0.274118	0.002	0.173913	0.005
21	0.246289	0.001	0.265306	0.015
22	0.250306	0.001	0.486486	0.005
23	0.255306	0.001	0.263158	0.005
24	0.255306	0.001	0.466667	0.005
25	0.276972	0.001	0.538462	0.003
26	0.279472	0.001	0.25	0.002
27	0.276972	0.001	0.666667	0.006
28	0.279472	0.001	0.178571	0.005
29	0.276972	0.001	0.222222	0.003
30	0.27	0.001	0.388889	0.005
31	0.276972	0.003	0.62069	0.003
32	0.279472	0.001	0.333333	0.003
33	0.281972	0.002	0.363636	0.004
34	0.285306	0.001	0.28	0.004
35	0.285306	0.001	0.382353	0.004
36	0.29625	0.001	0.421053	0.009
37	0.3025	0	0.111111	0.003
38	0.29625	0.001	0.230769	0.003
39	0.285306	0.001	0.454545	0.004
40	0.29625	0.002	0.37037	0.005
41	0.3025	0	0.25	0.002
42	0.29625	0.001	0.387097	0.004
43	0.3025	0.001	0	0.003
44	0.29625	0.002	0.322581	0.005
45	0.3025	0	0.369565	0.007
46	0.306426	0.001	0.352941	0.002
47	0.30976	0.001	0.176471	0.001
48	0.306426	0.001	0.387755	0.002
49	0.30976	0.001	0.294118	0.002
50	0.308349	0	0.166667	0.001
51	0.305849	0.002	0.2	0.005
52	0.3025	0.003	0.289474	0.005
53	0.300987	0	0.222222	0.004
54	0.29625	0.001	0.409091	0.005
55	0.300987	0.001	0.484848	0.006
56	0.304574	0.001	0.5	0.005
57	0.306574	0.002	0.285714	0.003
58	0.304764	0.001	0.380952	0.003
59	0.306574	0.001	0.52	0.005
60	0.308574	0.001	0.285714	0.003
61	0.306574	0	0.3125	0.002
62	0.306574	0	0.230769	0.007
63	0.304764	0.002	0.192308	0.007
64	0.303213	0.001	0.272727	0.004
65	0.30118	0.001	0.190476	0.003
66	0.299286	0.001	0.6	0.002
67	0.30118	0	0.555556	0.002
68	0.303371	0	0.315789	0.003
69	0.303642	0.001	0.148936	0.003
70	0.301838	0.002	0.346939	0.02
71	0.303642	0.001	0.27027	0.004
72	0.301838	0.001	0.12	0.006
73	0.300282	0.002	0.416667	0.005
74	0.301949	0.001	0.45	0.005
75	0.303642	0.001	0.0769231	0.012
76	0.301838	0.001	0	0.004
77	0.300282	0.002	0.407407	0.005
78	0.301949	0.001	0.4	0.006
79	0.303642	0	0.45	0.003
80	0.305011	0.001	0.4	0.003
81	0.306574	0.001	0.28	0.003
82	0.304911	0.001	0.588235	0.004
83	0.306574	0.001	0.45	0.001
84	0.308574	0.001	0.315789	0.005
85	0.308574	0.002	0.346154	0.004
86	0.310849	0.001	0.275862	0.016
87	0.308574	0	0	0.003
88	0.306574	0.001	0.1	0.003
89	0.30502	0.001	0.294118	0.002
90	0.30492	0.001	0.380952	0.003
91	0.306165	0.001	0.294118	0.003
92	0.305872	0.001	0.384615	0.003
93	0.307301	0.001	0.28125	0.003
94	0.305872	0.001	0.291667	0.002
95	0.30546	0.001	0.473684	0.006
96	0.306597	0.002	0.571429	0.005
97	0.307847	0	0.538462	0.002
98	0.309097	0.001	0.644444	0.01
99	0.310471	0.001	0.157895	0.001
100	0.309097	0.001	0.75	0.001
101	0.310471	0.001	0.266667	0.004
102	0.309097	0.003	0.0322581	0.01
103	0.307847	0.001	0.241379	0.004
104	0.306597	0.001	0.146341	0.009
105	0.305482	0.001	0.235294	0.005
106	0.304648	0.001	0.272727	0.006
107	0.303664	0.001	0.454545	0.003
108	0.304754	0.002	0.302326	0.007
109	0.304754	0.001	0.439024	0.007
110	0.305482	0.001	0.380952	0.004
111	0.306597	0.001	0.285714	0.005
112	0.3055	0.002	0.176471	0.001
113	0.30473	0.001	0.219512	0.005
114	0.303891	0.001	0.421053	0.002
115	0.304842	0.001	0.472222	0.006
116	0.305482	0	0.481481	0.003
117	0.306597	0.001	0.516129	0.008
118	0.307847	0.001	0.361702	0.006
119	0.309097	0.001	0.272727	0.004
120	0.307847	0.001	0.0909091	0.004
121	0.306597	0	0.352941	0.009
122	0.307847	0.001	0.75	0.003
123	0.309097	0.001	0.344828	0.004
124	0.310471	0.001	0.432432	0.007
125	0.311939	0.001	0.375	0.005
126	0.313688	0.001	0.319149	0.008
127	0.313688	0.001	0.5	0.004
128	0.317829	0.001	0.6	0.008
129	0.322917	0.002	0.673913	0.018
130	0.32626	0.004	0.341463	0.005
131	0.326995	0.001	0.403846	0.013
132	0.328245	0.001	0.32	0.004
133	0.328245	0.001	0.216216	0.008
134	0.326995	0.002	0.461538	0.004
135	0.328245	0.001	0.428571	0.003
136	0.329457	0	0.466667	0.005
137	0.330511	0.001	0.171429	0.003
138	0.329457	0.002	0.228571	0.005
139	0.328245	0.002	0.457143	0.005
140	0.329457	0.001	0.185185	0.009
141	0.328245	0	0.481481	0.002
142	0.329457	0.001	0.310345	0.003
143	0.32848	0	0.5	0.005
144	0.329545	0.002	0.384615	0.005
145	0.330511	0.002	0.409091	0.004
146	0.331516	0.003	0.375	0.008
147	0.332653	0.001	0.448276	0.012
148	0.333675	0.002	0.1	0.004
149	0.332645	0.002	0.238095	0.013
150	0.331516	0.001	0.571429	0.003
151	0.332653	0.001	0.434783	0.012
152	0.333675	0	0.166667	0.003
153	0.332645	0.001	0.294118	0.011
154	0.331516	0.001	0.222222	0.002
155	0.330511	0.001	0.304348	0.003
156	0.329545	0.001	0.241379	0.01
157	0.328478	0.002	0.26087	0.007
158	0.327367	0.002	0.255319	0.004
159	0.326171	0	0.277778	0.003
160	0.324231	0.002	0.1	0.009
161	0.322372	0.002	0.608696	0.022
162	0.324231	0.003	0.173913	0.015
163	0.322372	0.002	0.206897	0.009
164	0.320002	0.002	0.538462	0.003
165	0.322372	0.001	0.152174	0.011
166	0.320002	0.001	0.351351	0.01
167	0.322372	0.001	0.227273	0.004
168	0.320002	0.001	0.454545	0.005
169	0.322372	0.001	0.512195	0.018
170	0.324231	0.001	0.363636	0.004
171	0.326171	0	0.0625	0.004
172	0.324231	0.002	0.236842	0.009
173	0.322372	0.001	0.511628	0.013
174	0.324231	0.001	0.419355	0.002
175	0.326171	0.001	0.037037	0.004
176	0.324231	0.001	0.0909091	0.009
177	0.322372	0.001	0.157895	0.003
178	0.320002	0	0.142857	0.004
179	0.316669	0.001	0.4	0.006
180	0.320002	0.001	0.410256	0.008
181	0.322372	0.001	0.157895	0.004
182	0.320002	0.001	0.306122	0.005
183	0.319032	0.001	0.277778	0.007
184	0.316532	0.001	0.466667	0.002
185	0.319032	0.001	0.40625	0.007
186	0.321295	0.001	0.2	0.005
187	0.319032	0.002	0.333333	0.002
188	0.319892	0.001	0.125	0.002
189	0.317892	0.001	0.35	0.003
190	0.319892	0.001	0.125	0.003
191	0.317892	0.001	0.42029	0.019
192	0.319892	0.002	0.4	0.006
193	0.32161	0.001	0.230769	0.007
194	0.319892	0.002	0.363636	0.004
195	0.32161	0.001	0.35	0.007
196	0.323064	0.001	0.333333	0.006
197	0.323097	0.004	0.37931	0.03
198	0.324586	0.001	0.368421	0.004
199	0.326171	0.001	0.418182	0.017
200	0.327367	0.002	0.322581	0.004
201	0.327367	0.001	0.153846	0.004
202	0.326171	0.002	0.0952381	0.006
203	0.324586	0.001	0.413793	0.005
204	0.326171	0.001	0	0.009
205	0.324586	0	0.287671	0.016
206	0.322945	0.001	0.666667	0.003
207	0.324586	0.001	0.15	0.005
208	0.322945	0.001	0.234043	0.02
209	0.321826	0.001	0.301587	0.004
210	0.320591	0	0.391304	0.003
211	0.321826	0.001	0.7	0.006
212	0.323097	0.003	0.255814	0.005
213	0.321826	0	0.514286	0.007
214	0.323097	0.001	0.666667	0.027
215	0.324586	0.001	0.6	0.006
216	0.326171	0.001	0.321429	0.003
217	0.326171	0.001	0.4	0.003
218	0.327367	0.001	0.169811	0.009
219	0.326171	0.001	0.315789	0.02
220	0.326126	0.001	0.571429	0.002
221	0.32721	0.001	0.26087	0.005
222	0.326126	0.002	0.369231	0.007
223	0.32721	0.001	0.470588	0.01
224	0.32821	0.001	0.105263	0.003
225	0.32721	0.002	0.339623	0.009
226	0.327429	0.001	0.1	0.003
227	0.326478	0.001	0.5	0.006
228	0.327429	0.002	0.162162	0.004
229	0.326478	0	0.173913	0.006
230	0.32534	0.001	0.162162	0.008
231	0.323843	0	0.241379	0.004
232	0.322529	0	0.214286	0.019
233	0.321581	0.001	0.0526316	0.011
234	0.320483	0.002	0.486486	0.007
235	0.321581	0.002	0.142857	0.004
236	0.320483	0.001	0.0909091	0.006
237	0.319198	0.001	0.5	0.004
238	0.320483	0.001	0.36	0.012
239	0.321581	0.001	0.166667	0.006
240	0.320483	0	0.206897	0.004
241	0.319198	0.001	0.8	0.006
242	0.320483	0.002	0.302326	0.004
243	0.319589	0	0.5	0.004
244	0.320668	0.002	0.47619	0.003
245	0.321655	0	0.157895	0.003
246	0.320668	0	0.461538	0.003
247	0.321655	0.001	0.2	0.002
248	0.320668	0.001	0.238095	0.008
249	0.319589	0.002	0.272727	0.006
250	0.318339	0.003	0.322581	0.009
251	0.318339	0.001	0.4	0.007
252	0.319589	0.002	0.380952	0.009
253	0.320668	0.002	0.111111	0.008
254	0.319589	0.002	0.309524	0.003
255	0.319581	0.001	0.461538	0.01
256	0.320564	0.001	0.375	0.005
257	0.321472	0	0.173913	0.008
258	0.320564	0	0.333333	0.007
259	0.320794	0.001	0.413793	0.012
260	0.321617	0.001	0.4	0.014
261	0.322476	0.003	0.34375	0.006
262	0.323313	0.002	0.130435	0.011
263	0.322476	0.002	0.346154	0.006
264	0.323313	0.002	0.25	0.007
265	0.322476	0.001	0.193548	0.012
266	0.321556	0.001	0.125	0.044
267	0.320794	0.002	0.511628	0.006
268	0.321617	0.002	0.448276	0.014
269	0.322476	0.002	0.363636	0.009
270	0.323313	0.001	0.277778	0.006
271	0.322476	0.001	0.357143	0.008
272	0.323313	0.001	0.1	0.005
273	0.322476	0.002	0.372093	0.007
274	0.323313	0	0.222222	0.005
275	0.322476	0	0.277778	0.021
276	0.321556	0.026	0.242424	0.044
277	0.320794	0.001	0.545455	0.004
278	0.321617	0	0.307692	0.004
279	0.321325	0.001	0.1	0.009
280	0.320556	0.002	0.484848	0.005
281	0.321325	0.001	0.047619	0.008
282	0.320556	0.002	0.714286	0.004
283	0.321325	0.001	0.37931	0.011
284	0.322085	0.001	0.153846	0.004
285	0.321325	0.001	0.205882	0.008
286	0.320556	0.002	0.419355	0.002
287	0.321325	0.001	0.454545	0.005
288	0.322085	0.003	0.341463	0.01
289	0.32278	0.001	0.192308	0.006
290	0.322018	0	0.730769	0.004
291	0.32278	0.001	0.25	0.003
292	0.322018	0.001	0.272727	0.047
293	0.321325	0.001	0.342857	0.006
294	0.322085	0.002	0.1875	0.007
295	0.321325	0.001	0.411765	0.004
296	0.322085	0.001	0.490909	0.048
297	0.32278	0.001	0.545455	0.014
298	0.323494	0.001	0.176471	0.006
299	0.322687	0.001	0.392857	0.008
300	0.323494	0.001	0.222222	0.007
301	0.322687	0.001	0.358491	0.009
302	0.323494	0.001	0.41791	0.017
303	0.324349	0.002	0.5	0.002
304	0.325222	0.001	0.210526	0.003
305	0.324349	0.001	0.5	0.003
306	0.325222	0.001	0.25	0.008
307	0.324349	0.002	0.440678	0.017
308	0.325222	0.001	0.777778	0.006
309	0.326018	0.002	0.2	0.009
310	0.325222	0.001	0.315789	0.008
311	0.325222	0.002	0.470588	0.016
312	0.326018	0.001	0.333333	0.005
313	0.326018	0.001	0.192308	0.008
314	0.325222	0.001	0.153846	0.003
315	0.324349	0.001	0.6	0.002
316	0.325222	0	0.216216	0.004
317	0.324349	0.001	0.388889	0.012
318	0.325222	0.001	0.510204	0.017
319	0.326018	0.001	0.410256	0.012
320	0.326695	0.001	0.304348	0.006
321	0.326018	0.001	0.333333	0.006
322	0.326018	0.002	0.714286	0.007
323	0.326695	0.002	0.12	0.011
324	0.326018	0.001	0.567568	0.009
325	0.326695	0.001	0.142857	0.003
326	0.326018	0.001	0.21875	0.005
327	0.325222	0.002	0.458333	0.012
328	0.326018	0.001	0.529412	0.009
329	0.326695	0.002	0.428571	0.046
330	0.327164	0.001	0.541667	0.01
331	0.327721	0.002	0.333333	0.003
332	0.327721	0	0.185185	0.003
333	0.327164	0.001	0.16	0.003
334	0.326586	0.001	0.0909091	0.009
335	0.325989	0.003	0.2	0.014
336	0.325222	0.003	0.111111	0.006
337	0.32433	0.001	0.1	0.01
338	0.323565	0.001	0.378378	0.011
339	0.324349	0.001	0.636364	0.004
340	0.325222	0.001	0.181818	0.005
341	0.324349	0.002	0.12766	0.014
342	0.323565	0.001	0.428571	0.006
343	0.324349	0.001	0.657143	0.003
344	0.325222	0.001	0.37931	0.003
345	0.326018	0.001	0.5	0.014
346	0.326695	0.003	0.246575	0.027
347	0.326018	0.001	0	0.011
348	0.325222	0.001	0.642857	0.011
349	0.326018	0.003	0.145161	0.009
350	0.325222	0.001	0.222222	0.005
351	0.324349	0.001	0.190476	0.004
352	0.323565	0	0.4	0.003
353	0.324349	0.001	0.382353	0.01
354	0.325222	0.003	0.703704	0.013
355	0.326018	0.001	0.233333	0.006
356	0.325222	0.002	0	0.009
357	0.324349	0.001	0.185185	0.012
358	0.323565	0.002	0.666667	0.009
359	0.324349	0.001	0.333333	0.005
360	0.324349	0.002	0.1	0.005
361	0.323565	0	0.269231	0.01
362	0.322882	0.001	0.384615	0.018
363	0.323565	0.002	0.25	0.007
364	0.322882	0.002	0.514286	0.013
365	0.323565	0.002	0.490196	0.011
366	0.324349	0.001	0.421053	0.009
367	0.325222	0.002	0.307692	0.003
368	0.324628	0.001	0.222222	0.01
369	0.323873	0.001	0.166667	0.004
370	0.323165	0.001	0.136364	0.007
371	0.32256	0.001	0.320755	0.021
372	0.32256	0.001	0.196078	0.066
373	0.32219	0.001	0.486486	0.009
374	0.322714	0	0.25	0.005
375	0.32219	0.001	0.290323	0.015
376	0.321664	0.002	0.307692	0.011
377	0.321471	0.003	0.145455	0.077
378	0.321007	0.001	0.117647	0.007
379	0.320515	0.001	0.297619	0.015
380	0.319997	0.002	0.191489	0.015
381	0.319459	0.001	0.243243	0.011
382	0.318871	0.001	0.25	0.007
383	0.318282	0.001	0.277778	0.007
384	0.317694	0.001	0.487179	0.006
385	0.318282	0.002	0.48	0.004
386	0.318871	0.001	0.357143	0.004
387	0.319459	0.001	0.6	0.004
388	0.319997	0.003	0.375	0.01
389	0.320515	0.002	0.09375	0.014
390	0.319997	0.001	0.290323	0.011
391	0.319459	0.001	0.166667	0.007
392	0.318871	0.002	0.5	0.006
393	0.319459	0.001	0.333333	0.01
394	0.319664	0.002	0.263158	0.007
395	0.319119	0.001	0.117647	0.007
396	0.318563	0	0.555556	0.003
397	0.319119	0.001	0.478261	0.004
398	0.319664	0.001	0	0.014
399	0.319119	0.002	0.37931	0.013
400	0.319664	0.001	0	0.014
401	0.319119	0.002	0.387097	0.013
402	0.319664	0.001	0.53125	0.012
403	0.320164	0.002	0.833333	0.006
404	0.320649	0.001	0.121212	0.009
405	0.320164	0.001	0.21875	0.004
406	0.319664	0.001	0.444444	0.003
407	0.320164	0.001	0.0714286	0.014
408	0.319664	0.001	0.4375	0.012
409	0.320164	0.001	0.333333	0.008
410	0.320315	0.002	0.12	0.009
411	0.319839	0.002	0.176471	0.011
412	0.31934	0.001	0.326087	0.007
413	0.31934	0.001	0.351351	0.01
414	0.319839	0	0.540541	0.011
415	0.320315	0.001	0.277778	0.005
416	0.319839	0.001	0.125	0.008
417	0.31934	0.001	0.428571	0.006
418	0.319839	0.001	0.56	0.01
419	0.320315	0.001	0.75	0.009
420	0.320771	0.002	0.0625	0.011
421	0.320315	0.002	0.25	0.009
422	0.319839	0.001	0.461538	0.01
423	0.320315	0.003	0.625	0.016
424	0.320771	0.002	0.392857	0.048
425	0.321225	0.002	0.159091	0.017
426	0.320771	0.001	0.5	0.007
427	0.321225	0.002	0.307692	0.009
428	0.321072	0.001	0.285714	0.008
429	0.320637	0.001	0.375	0.009
430	0.321072	0	0.230769	0.016
431	0.320637	0.001	0.0625	0.015
432	0.320196	0.001	0.134615	0.017
433	0.319741	0.002	0.454545	0.01
434	0.320191	0.001	0.307692	0.014
435	0.320087	0.001	0.231707	0.019
436	0.319652	0.001	0.458333	0.004
437	0.320087	0.001	0.266667	0.009
438	0.319652	0	0.243243	0.017
439	0.319184	0.001	0.634146	0.017
440	0.319652	0.002	0.541667	0.01
441	0.320087	0.001	0.258065	0.015
442	0.319652	0.001	0.405405	0.009
443	0.320087	0.002	0.267857	0.011
444	0.319652	0.002	0	0.009
445	0.319184	0.001	0.454545	0.004
446	0.319652	0.002	0.166667	0.016
447	0.319184	0.002	0.45	0.016
448	0.319652	0.003	0.375	0.009
449	0.320087	0.002	0	0.02
450	0.319652	0.001	0.454545	0.004
451	0.320087	0.001	0.204545	0.005
452	0.319652	0.002	0.352941	0.014
453	0.320087	0.001	0	0.014
454	0.319652	0.001	0.16129	0.019
455	0.319184	0.002	0.307692	0.01
456	0.319116	0.002	0.322581	0.007
457	0.319116	0.002	0.148148	0.007
458	0.318661	0.001	0.244444	0.015
459	0.318207	0.001	0.473684	0.006
460	0.318661	0.001	0.611111	0.006
461	0.319116	0.001	0.125	0.004
462	0.318661	0.002	0.416667	0.013
463	0.319116	0.001	0.75	0.012
464	0.319568	0.001	0.416667	0.012
465	0.319987	0.001	0.546667	0.022
466	0.320402	0.001	0.37037	0.011
467	0.320802	0.002	0.466667	0.006
468	0.321202	0.001	0.105263	0.008
469	0.320802	0.001	0.214286	0.004
470	0.320402	0.001	0.142857	0.016
471	0.319987	0.002	0.333333	0.011
472	0.320121	0.002	0.333333	0.011
473	0.320245	0.002	0.583333	0.011
474	0.320619	0.002	0.166667	0.011
475	0.320324	0.001	0.410714	0.014
476	0.320619	0.001	0.166667	0.019
477	0.320245	0.002	0.459459	0.014
478	0.320619	0.002	0.318182	0.008
479	0.320619	0.001	0.388889	0.014
480	0.320989	0.001	0.263158	0.016
481	0.320619	0.001	0.307692	0.017
482	0.320458	0.001	0.4	0.007
483	0.320871	0.002	0.208333	0.006
484	0.320514	0	0.37037	0.016
485	0.320871	0.002	0.181818	0.014
486	0.320514	0.001	0.548387	0.013
487	0.320871	0.001	0.290323	0.013
488	0.320514	0.002	0.468085	0.011
489	0.320871	0.001	0.510204	0.028
490	0.321229	0.003	0.3	0.016
491	0.320871	0.002	0.230769	0.01
492	0.320514	0.001	0.368421	0.012
493	0.320871	0.001	0.4	0.015
494	0.321229	0.001	0.5	0.005
495	0.321581	0.002	0.314286	0.006
496	0.321581	0.001	0.357143	0.006
497	0.321938	0	0.4	0.014
498	0.322296	0.002	0.108108	0.019
499	0.321938	0.001	0.875	0.016
500	0.322296	0.001	0.176471	0.015
501	0.321938	0.002	0.511628	0.015
502	0.322296	0.001	0.452381	0.115
503	0.322624	0.001	0.14	0.029
504	0.322265	0.001	0.111111	0.015
505	0.321908	0.001	0.361702	0.015
506	0.322265	0.001	0.333333	0.014
507	0.322302	0.001	0.214286	0.007
508	0.321957	0.003	0.222222	0.007
509	0.321612	0.011	0.666667	0.011
510	0.321957	0.004	0.369565	0.016
511	0.322302	0.001	0.433333	0.019
512	0.322647	0.001	0.26087	0.019
513	0.322302	0.001	0.5625	0.014
514	0.322647	0.001	0.5625	0.006
515	0.322977	0.002	0.621622	0.027
516	0.323299	0.002	0.142857	0.024
517	0.322977	0.001	0.7	0.01
518	0.323297	0.003	0.8	0.04
519	0.323826	0.001	0.380952	0.011
520	0.324349	0.002	0.625	0.016
521	0.324901	0.002	0.3	0.017
522	0.324349	0.001	0.4	0.016
523	0.324901	0.001	0.275862	0.012
524	0.324349	0.001	0.351351	0.006
525	0.324901	0.001	0.166667	0.018
526	0.324349	0.002	0.357143	0.02
527	0.324901	0.001	0.142857	0.016
528	0.324349	0.002	0.490909	0.021
529	0.324901	0.001	0.6	0.009
530	0.325427	0.004	0.310345	0.008
531	0.325173	0.001	0.25	0.011
532	0.324665	0.001	0.142857	0.024
533	0.324152	0.001	0.714286	0.021
534	0.324665	0.001	0.448276	0.016
535	0.325173	0.001	0.617647	0.012
536	0.325673	0.002	0.451613	0.013
537	0.326152	0.001	0.45	0.007
538	0.326575	0.001	0.5	0.127
539	0.326912	0.001	0.392157	0.4
540	0.327298	0.001	0.363636	0.013
541	0.327682	0.002	0.590909	0.021
542	0.328203	0.001	0.181818	0.018
543	0.327682	0.001	0.411765	0.013
544	0.328203	0.001	0.388889	0.013
545	0.328703	0.001	0.56	0.015
546	0.329201	0.002	0.0980392	0.017
547	0.328703	0.002	0.102564	0.015
548	0.328203	0.001	0.517241	0.01
549	0.328703	0.001	0.585366	0.015
550	0.329201	0.002	0.46875	0.02
551	0.329688	0.001	0.305556	0.02
552	0.329201	0.002	0.434783	0.017
553	0.329688	0.003	0.27907	0.022
554	0.329201	0.001	0.458333	0.034
555	0.329688	0.001	0.274194	0.028
556	0.329201	0.001	0.15	0.016
557	0.328703	0.001	0.470588	0.012
558	0.329201	0.002	0.205882	0.01
559	0.328703	0.001	0.4	0.011
560	0.329201	0.001	0.5	0.017
561	0.329688	0.002	0.296296	0.026
562	0.329201	0.001	0.36	0.017
563	0.329688	0.001	0.444444	0.017
564	0.330185	0.001	0.368421	0.012
565	0.330669	0.001	0.232558	0.019
566	0.330177	0.001	0.387097	0.02
567	0.330669	0.002	0.4	0.015
568	0.331149	0.002	0.578947	0.013
569	0.331606	0.001	0.382353	0.014
570	0.332061	0.001	0.388889	0.165
571	0.332465	0.002	0.405405	0.039
572	0.332882	0.001	0.2	0.04
573	0.332465	0.001	0.434783	0.032
574	0.332882	0.003	0	0.036
575	0.332465	0.002	0.0789474	0.021
576	0.33203	0.004	0.424242	0.02
577	0.332465	0.002	0.225806	0.018
578	0.33203	0.001	0.216216	0.009
579	0.331595	0.001	0.875	0.018
580	0.33203	0.002	0.518519	0.019
581	0.332465	0.001	0.5	0.025
582	0.332882	0.002	0.333333	0.012
583	0.332882	0.001	0.241379	0.024
584	0.332465	0.002	0.48	0.017
585	0.332882	0.004	0.289474	0.046
586	0.332465	0.002	0.5	0.025
587	0.332882	0.002	0.12	0.039
588	0.332465	0.003	0	0.018
589	0.33203	0.001	0.5	0.02
590	0.332465	0.002	0.0666667	0.017
591	0.33203	0.001	0.291667	0.01
592	0.331595	0.001	0.666667	0.015
593	0.33203	0.001	0.171429	0.02
594	0.331595	0.002	0.294118	0.031
595	0.331134	0.001	0.238095	0.016
596	0.330627	0.001	0.333333	0.007
597	0.330627	0.001	0.458333	0.011
598	0.331134	0.007	0.327273	0.014
599	0.331134	0.002	0.692308	0.023
600	0.331606	0.002	0.244898	0.029
601	0.331134	0.001	0.0416667	0.013
602	0.330627	0.001	0.245902	0.165
603	0.330105	0.001	0.263158	0.018
604	0.329651	0.001	0.204545	0.219
605	0.329201	0.003	0.641026	0.028
606	0.329688	0.001	0.0909091	0.023
607	0.329201	0.002	0	0.018
608	0.328703	0.003	0.333333	0.009
609	0.328703	0.001	0.4	0.008
610	0.329201	0	0.307692	0.032
611	0.328703	0.002	0.296296	0.022
612	0.328203	0.002	0.333333	0.008
613	0.328203	0.001	0.255814	0.021
614	0.327682	0.002	0.378378	0.012
615	0.328203	0.002	0.296296	0.039
616	0.327682	0.003	0.333333	0.01
617	0.327682	0.002	0.377778	0.026
618	0.328203	0.002	0.269231	0.014
619	0.327682	0.003	0.333333	0.025
620	0.327682	0	0.5	0.041
621	0.328203	0.002	0.263158	0.024
622	0.327682	0.001	0	0.017
623	0.327282	0.001	0.105263	0.012
624	0.326879	0.001	0.0857143	0.189
625	0.326557	0.002	0.486486	0.012
626	0.326942	0.001	0.261905	0.027
627	0.326557	0.003	0.222222	0.018
628	0.326173	0.002	0.48	0.016
629	0.326557	0.002	0.147059	0.02
630	0.326173	0.001	0.296296	0.032
631	0.325769	0.002	0.113636	0.022
632	0.325305	0.001	0.347826	0.019
633	0.326199	0.003	0.25	0.02
634	0.325305	0.001	0.555556	0.01
635	0.325769	0.003	0.148936	0.042
636	0.325305	0.001	0.482759	0.025
637	0.325769	0.003	0.272727	0.015
638	0.325305	0	0.642857	0.01
639	0.325769	0.003	0.384615	0.023
640	0.326205	0.001	0.238095	0.047
641	0.325769	0.001	0.25641	0.023
642	0.325305	0.001	0.272727	0.02
643	0.32485	0.001	0.0833333	0.025
644	0.324375	0.001	0.227273	0.029
645	0.323922	0.001	0.333333	0.01
646	0.323922	0.002	0.258065	0.029
647	0.323454	0.003	0.428571	0.024
648	0.323922	0.002	0.363636	0.022
649	0.324375	0.002	0.307692	0.019
650	0.324086	0.001	0.24	0.023
651	0.323647	0.003	0.0625	0.03
652	0.323223	0.002	0.5	0.038
653	0.323647	0.001	0.214286	0.018
654	0.323222	0.002	1.25	0.072
655	0.323647	0.001	0.333333	0.009
656	0.323647	0.001	0.166667	0.034
657	0.323226	0.001	0.0689655	0.021
658	0.322881	0.003	0.0434783	0.023
659	0.322525	0.001	0.666667	0.014
660	0.322881	0.001	0.296296	0.025
661	0.322525	0.001	0.5	0.026
662	0.322881	0.002	0.272727	0.029
663	0.322525	0.001	0	0.243
664	0.322335	0.003	0.369048	0.041
665	0.322648	0.002	0.36	0.025
666	0.322948	0.001	0.625	0.028
667	0.323242	0.004	0.6	0.066
668	0.323647	0.001	0.272727	0.034
669	0.323226	0.002	0.125	0.023
670	0.322881	0.003	0.521739	0.022
671	0.323226	0.001	0.454545	0.024
672	0.323647	0.002	0.36	0.036
673	0.324085	0.001	0.333333	0.013
674	0.324086	0.002	0.8	0.025
675	0.324526	0.001	0.377358	0.023
676	0.324974	0.003	0.652174	0.027
677	0.325409	0.001	0.619048	0.025
678	0.325851	0.002	0.195122	0.027
679	0.325409	0.001	0.363636	0.028
680	0.325851	0.004	0.117647	0.033
681	0.325409	0.001	0.333333	0.013
682	0.32541	0.002	0.32	0.01
683	0.325409	0.001	0.15	0.026
684	0.324973	0.002	0.363636	0.027
685	0.325409	0.002	0.09375	0.023
686	0.324974	0.002	0.28	0.024
687	0.324526	0.001	0.521739	0.027
688	0.324974	0.003	0.404255	0.025
689	0.325409	0.002	0.0740741	0.025
690	0.324974	0.001	0.16129	0.017
691	0.324526	0.001	0.306122	0.04
692	0.324171	0.003	0.535714	0.031
693	0.324595	0.003	0.275862	0.021
694	0.324171	0	0.0980392	0.041
695	0.323754	0.002	0.236842	0.043
696	0.323324	0.002	0.363636	0.091
697	0.323754	0.001	0.363636	0.018
698	0.324171	0.001	0.434783	0.042
699	0.324595	0.002	0	0.03
700	0.324171	0.003	0.525	0.02
701	0.324595	0.001	0.625	0.035
702	0.325022	0.003	0.3125	0.029
703	0.324921	0.003	0.565217	0.022
704	0.325321	0.003	0.464286	0.029
705	0.325728	0.004	0.357143	0.029
706	0.326117	0.002	0.521739	0.028
707	0.326504	0.002	0.105263	0.022
708	0.326117	0.002	0.380282	0.047
709	0.326504	0.002	0.285714	0.022
710	0.326117	0.001	0.333333	0.009
711	0.326117	0.002	0.0769231	0.048
712	0.32571	0.001	0.3125	0.03
713	0.325577	0.001	0.5	0.022
714	0.325978	0	0.285714	0.049
715	0.325577	0.002	0.68	0.031
716	0.325978	0.001	0.4	0.023
717	0.326356	0.004	0	0.032
718	0.325978	0.002	0.205882	0.032
719	0.325577	0.002	0.875	0.017
720	0.325978	0.002	0.0555556	0.043
721	0.325564	0.002	0.666667	0.027
722	0.325978	0.002	0.4	0.025
723	0.326356	0.001	0.285714	0.034
724	0.325978	0.001	0.129032	0.036
725	0.325577	0.002	0.321429	0.013
726	0.325577	0.002	0.125	0.023
727	0.325176	0.002	0.302326	0.28
728	0.324828	0.001	0.1	0.025
729	0.324428	0.002	0.428571	0.042
730	0.32482	0.001	0.333333	0.017
731	0.324828	0.002	0.294118	0.029
732	0.324428	0.001	0.384615	0.035
733	0.324828	0.002	0.181818	0.037
734	0.324428	0.002	0.15625	0.035
735	0.324042	0.004	0.351852	0.037
736	0.324428	0.002	0.0526316	0.027
737	0.324042	0.001	0.354167	0.037
738	0.324422	0.001	0.181818	0.033
739	0.324042	0.002	0.25	0.025
740	0.323654	0.001	0.48	0.033
741	0.324042	0.001	0.708333	0.035
742	0.324428	0.002	0.150943	0.052
743	0.324042	0.002	0.653846	0.047
744	0.324428	0.002	0.175	0.026
745	0.324042	0.001	0.277778	0.041
746	0.323654	0.002	0.333333	0.015
747	0.323654	0.001	0.358491	0.026
748	0.324042	0.002	0.380952	0.028
749	0.324428	0.001	0.28125	0.045
750	0.324042	0.001	0.217391	0.028
751	0.323654	0.001	0.114286	0.062
752	0.323279	0.003	0.142857	0.028
753	0.323001	0.002	0.392857	0.024
754	0.323279	0.002	0.294118	0.031
755	0.323001	0.002	0.285714	0.023
756	0.322719	0.001	0.333333	0.03
757	0.322736	0.002	0.285714	0.072
758	0.322453	0.002	0.24	0.409
759	0.322355	0.001	0.2	0.447
760	0.322309	0.002	0.625	0.065
761	0.32252	0.002	0.142857	0.058
762	0.322309	0.002	0	0.026
763	0.322101	0.003	0.131579	0.026
764	0.321892	0.002	0.580645	0.033
765	0.322101	0.004	0.533333	0.062
766	0.322309	0.002	0.195122	0.032
767	0.322101	0.002	0.414634	0.05
768	0.322309	0.003	0.6875	0.056
769	0.32252	0.002	0.208333	0.066
770	0.322309	0.002	0.142857	0.024
771	0.322101	0.001	0.0952381	0.03
772	0.321892	0.001	0.371429	0.024
773	0.322101	0.001	0.28	0.026
774	0.321892	0.001	0.179104	0.022
775	0.321684	0.002	0.206897	0.043
776	0.321478	0.004	0.0333333	0.407
777	0.321309	0.002	0.130435	0.025
778	0.321092	0.001	0.425	0.029
779	0.321309	0.001	0.166667	0.028
780	0.321105	0.002	0.162162	0.033
781	0.320901	0.001	0.357143	0.026
782	0.321105	0.003	0.357143	0.026
783	0.321309	0.003	0.446154	0.033
784	0.321512	0.002	0.190476	0.048
785	0.321309	0.003	0.368421	0.031
786	0.321512	0.001	0.266667	0.026
787	0.321309	0.005	0.25	0.035
788	0.321105	0.001	0.258065	0.034
789	0.320901	0.006	0.636364	0.044
790	0.321105	0.001	0.571429	0.026
791	0.321289	0.002	0.304348	0.025
792	0.32117	0.001	0.25	0.029
793	0.32097	0.002	0.342857	0.033
794	0.32117	0.001	0.290323	0.027
795	0.32097	0.001	0.352941	0.023
796	0.32117	0.001	0.3125	0.015
797	0.32117	0.001	0.545455	0.03
798	0.32137	0.001	0.396226	0.03
799	0.321568	0.001	1.5	0.026
800	0.321768	0.002	0.169811	0.03
801	0.321568	0.003	0.358974	0.035
802	0.321768	0.001	0.470588	0.026
803	0.321968	0.002	1	0.027
804	0.322168	0.001	0.142857	0.029
805	0.321968	0.002	0.178571	0.028
806	0.32179	0.001	0.636364	0.026
807	0.321968	0.001	0.229167	0.04
808	0.321768	0.002	0.6	0.027
809	0.321968	0.002	0.3625	0.032
810	0.322168	0.002	0.147059	0.027
811	0.321968	0.002	0.4	0.029
812	0.322168	0.001	1	0.028
813	0.32237	0	0.235294	0.035
814	0.322161	0.001	0.3	0.042
815	0.321953	0.001	0.722222	0.03
816	0.322161	0.003	0.228571	0.033
817	0.321953	0.002	0.409091	0.031
818	0.322161	0.002	0.0689655	0.031
819	0.321953	0.002	0.424242	0.03
820	0.322161	0.001	0.333333	0.03
821	0.322185	0.001	0.322034	0.015
822	0.322185	0.001	0.25	0.027
823	0.321981	0.001	0.476923	0.029
824	0.322185	0.002	0.380952	0.036
825	0.32239	0.001	0	0.028
826	0.322185	0.001	0.291667	0.029
827	0.321981	0.001	0.44186	0.03
828	0.322185	0.001	0.157895	0.026
829	0.321981	0.003	0.567568	0.033
830	0.322185	0.002	0.5	0.032
831	0.32239	0.001	0.347222	0.322
832	0.322571	0.001	0.529412	0.031
833	0.322764	0.001	0.636364	0.043
834	0.322952	0.002	0.454545	0.027
835	0.323137	0.002	0.37037	0.027
836	0.323323	0.001	0.36	0.31
837	0.32361	0.002	0.240506	0.064
838	0.323274	0.001	0.153846	0.026
839	0.323027	0.002	0.159091	0.033
840	0.322773	0.002	0.266667	0.028
841	0.32251	0.001	0.25	0.354
842	0.322356	0.002	0.368421	0.038
843	0.322611	0.001	0.125	0.045
844	0.322356	0.002	0.25	0.405
845	0.322352	0.002	0.147059	0.282
846	0.322171	0.002	0.0769231	0.026
847	0.321971	0.003	0.347826	0.035
848	0.322171	0.001	0.28	0.03
849	0.321971	0.002	0.2	0.028
850	0.321771	0.002	0.424242	0.034
851	0.321971	0.002	0.409091	0.03
852	0.322171	0.002	0.269231	0.03
853	0.321971	0.002	0.2	0.029
854	0.321771	0.001	0.652174	0.03
855	0.321971	0.001	0.638889	0.032
856	0.322171	0.001	0.25	0.038
857	0.321971	0.002	0.0833333	0.03
858	0.321771	0.002	0.193548	0.035
859	0.321571	0.001	0.857143	0.036
860	0.321771	0.001	0.126316	0.045
861	0.321571	0.002	0.148148	0.037
862	0.321371	0.002	0.214286	0.326
863	0.321213	0.002	0.0555556	0.033
864	0.321017	0.001	0.269231	0.033
865	0.320821	0.001	0.375	0.031
866	0.321017	0.001	0.244898	0.034
867	0.320821	0.001	0.266667	0.029
868	0.320624	0.001	0.185185	0.032
869	0.320428	0.001	0.611111	0.031
870	0.320624	0.002	0.54	0.037
871	0.320821	0.002	0.511111	0.032
872	0.321017	0.002	0.269231	0.032
873	0.320821	0.001	0.206897	0.031
874	0.320624	0.002	0.409091	0.034
875	0.320821	0.001	0.0967742	0.037
876	0.320624	0.003	0.5	0.035
877	0.320821	0.001	0.107143	0.033
878	0.320624	0.001	0.0540541	0.034
879	0.320428	0.001	0.292683	0.046
880	0.320228	0.001	0.384615	0.034
881	0.320428	0.002	0.1875	0.038
882	0.320228	0.002	0.625	0.045
883	0.320428	0.001	0	0.044
884	0.320228	0.002	0.375	0.04
885	0.320428	0.001	0.111111	0.046
886	0.320228	0.001	0.428571	0.046
887	0.320428	0.001	0.166667	0.045
888	0.320228	0.002	0.6	0.041
889	0.320428	0.001	0.117647	0.042
890	0.320228	0.001	0.318182	0.021
891	0.320228	0.001	0.625	0.035
892	0.320428	0.002	0.5	0.037
893	0.320625	0.002	0.2	0.032
894	0.320428	0.001	0.5625	0.034
895	0.320624	0.001	0.238095	0.034
896	0.320428	0.001	0.142857	0.045
897	0.320228	0.001	0.590909	0.037
898	0.320428	0.001	0.228571	0.045
899	0.320228	0.001	0.0344828	0.05
900	0.320024	0.001	0.122449	0.039
901	0.319823	0.001	0.231579	0.048
902	0.319623	0.001	0.684211	0.035
903	0.319823	0.002	0.482759	0.05
904	0.320024	0.002	0.210526	0.041
905	0.319823	0.001	0.473684	0.042
906	0.319978	0.002	0.125	0.039
907	0.319823	0.001	0.0606061	0.042
908	0.319623	0.002	0.361111	0.037
909	0.319823	0.001	0.487805	0.046
910	0.320024	0.001	0.190476	0.042
911	0.319823	0.002	0.0588235	0.041
912	0.319623	0	0.103448	0.057
913	0.319417	0.002	0.6	0.039
914	0.319623	0.001	0.555556	0.034
915	0.319823	0.001	0.166667	0.038
916	0.319623	0.002	0.302326	0.049
917	0.319476	0.002	0.366667	0.048
918	0.319676	0.002	0.146341	0.047
919	0.319476	0.003	0.486486	0.043
920	0.319676	0.002	0.181818	0.046
921	0.319476	0.001	0.37931	0.042
922	0.319676	0.001	0	0.049
923	0.319476	0.001	0.341463	0.053
924	0.319676	0.002	0.380952	0.039
925	0.319872	0.002	0.15	0.039
926	0.319676	0.002	0.372093	0.038
927	0.319872	0.002	0.272727	0.037
928	0.319676	0.001	0.0666667	0.051
929	0.319477	0.001	0.170213	0.044
930	0.319272	0.002	0.888889	0.038
931	0.31947	0.001	0.526316	0.047
932	0.319676	0.001	0.192308	0.052
933	0.319476	0.002	0.45	0.043
934	0.319676	0.001	0.470588	0.039
935	0.319872	0.003	0.319149	0.024
936	0.319872	0.001	0.285714	0.039
937	0.319676	0.002	0.2	0.052
938	0.319476	0.002	0.16129	0.039
939	0.319272	0.001	0.426829	0.05
940	0.319476	0.002	0.40625	0.044
941	0.319676	0.001	0.319149	0.023
942	0.319676	0.002	0.254545	0.05
943	0.319476	0.002	0.241758	0.044
944	0.319272	0.001	0.25	0.042
945	0.319068	0.001	0.1	0.468
946	0.318909	0.002	0.2	0.042
947	0.318713	0.001	0.12	0.048
948	0.318516	0.001	0.333333	0.049
949	0.318609	0.001	0.571429	0.044
950	0.318801	0.001	0.181818	0.038
951	0.318609	0.001	0.425	0.045
952	0.318801	0.001	0.326923	0.025
953	0.318801	0.002	0.104167	0.04
954	0.318609	0.002	0.357143	0.042
955	0.318801	0.003	0.222222	0.038
956	0.318609	0.001	0.172414	0.045
957	0.318417	0.002	0.4	0.041
958	0.318609	0.003	0.216216	0.042
959	0.318112	0.002	0.125	0.04
960	0.318224	0.002	0.142857	0.045
961	0.318032	0.002	0.333333	0.045
962	0.318132	0.001	0.5	0.04
963	0.318321	0.002	0.403846	0.045
964	0.31851	0.003	0.277778	0.039
965	0.318321	0.001	0.0454545	0.045
966	0.318132	0.001	0.28	0.044
967	0.317943	0.001	0.386364	0.045
968	0.318132	0.002	0.25641	0.042
969	0.317943	0.002	0.4	0.045
970	0.318132	0.001	0.291667	0.05
971	0.317943	0.001	0	0.044
972	0.317755	0.001	0.333333	0.041
973	0.317858	0.001	0.48	0.06
974	0.318043	0.001	0.166667	0.043
975	0.317858	0.002	0.358974	0.045
976	0.318043	0.002	0.538462	0.042
977	0.318228	0.002	0.268293	0.045
978	0.318112	0.002	0.0689655	0.046
979	0.317858	0.001	0.176471	0.1
980	0.317669	0.001	0.583333	0.064
981	0.317861	0.002	0.166667	0.113
982	0.317669	0.001	0.478261	0.059
983	0.317861	0.002	0.233333	0.104
984	0.317669	0.001	0.196429	0.055
985	0.31745	0.001	0.448276	0.047
986	0.317669	0.002	0.666667	0.065
987	0.317861	0.001	0	0.131
988	0.317668	0.001	0.486486	0.064
989	0.317861	0.001	0.464286	0.053
990	0.31805	0.002	0.423077	0.045
991	0.318239	0.001	0.314286	0.026
992	0.318239	0.003	0.5	0.043
993	0.318427	0.002	0.205882	0.043
994	0.318223	0.002	0.125	0.05
995	0.31805	0.001	0.5	0.046
996	0.318239	0.002	0.177778	0.052
997	0.31805	0.001	0.473684	0.048
998	0.318239	0.002	0.583333	0.056
999	0.318427	0.002	0.37931	0.047
1000	0.318616	0.002	0.315789	0.022
1001	0.318616	0.002	0.466667	0.386
1002	0.318784	0.001	0.4	0.042
1003	0.318969	0.002	0.148936	0.042
1004	0.318784	0.002	0.27451	0.043
1005	0.318599	0.002	0.204545	0.045
1006	0.318414	0.001	0.52381	0.044
1007	0.318599	0.001	0.344828	0.041
1008	0.318784	0.002	0.357143	0.048
1009	0.318969	0.001	0.117647	0.042
1010	0.318784	0.001	0.857143	0.043
1011	0.318969	0.002	0.214286	0.042
1012	0.318784	0.001	0.441176	0.046
1013	0.318969	0.002	0.193548	0.043
1014	0.318794	0.002	0.421053	0.042
1015	0.318969	0.001	0.291667	0.048
1016	0.318784	0.001	0.395062	0.058
1017	0.318969	0.001	0.176471	0.046
1018	0.318784	0.002	0.275862	0.044
1019	0.318599	0.002	0.277778	0.045
1020	0.318414	0.002	0.310345	0.028
1021	0.318414	0.001	0.25	0.047
1022	0.318228	0.001	0.52381	0.051
1023	0.318414	0.007	0.470588	0.049
1024	0.318599	0.001	0.210526	0.045
1025	0.318414	0.001	0.631579	0.044
1026	0.318599	0.002	0.162162	0.047
1027	0.318414	0.001	0.285714	0.051
1028	0.318228	0.001	0.818182	0.047
1029	0.318414	0.001	0.6	0.047
1030	0.318599	0.002	0.157895	0.047
1031	0.318414	0.001	0.34375	0.045
1032	0.318599	0.002	0.12	0.043
1033	0.318414	0.001	0.255319	0.051
1034	0.318228	0.002	0.368421	0.046
1035	0.318414	0.001	0.285714	0.047
1036	0.318228	0.001	0.347826	0.049
1037	0.318414	0.001	0.75	0.045
1038	0.318599	0.002	0.235294	0.044
1039	0.318414	0.001	0.26087	0.044
1040	0.318228	0.001	0.193548	0.049
1041	0.318043	0.002	0.5	0.049
1042	0.318228	0.001	0.428571	0.05
1043	0.318414	0.001	0	0.047
1044	0.318228	0.001	0.176471	0.045
1045	0.318043	0.001	0.583333	0.047
1046	0.318228	0.001	0.142857	0.047
1047	0.318043	0.002	0.2	0.047
1048	0.317858	0.002	0.38983	0.048
1049	0.318043	0.001	0.27027	0.047
1050	0.317858	0.002	0.681818	0.045
1051	0.318043	0.003	0.289474	0.048
1052	0.317858	0.001	0.571429	0.044
1053	0.318043	0.001	0.25	0.047
1054	0.317858	0.001	0.606061	0.047
1055	0.318043	0.001	0.1875	0.062
1056	0.317861	0.001	0.2	0.108
1057	0.317669	0.001	0.222222	0.05
1058	0.31745	0.002	0	0.051
1059	0.317234	0.002	0.4	0.057
1060	0.31745	0.001	0.0588235	0.047
1061	0.317234	0.001	0.275	0.059
1062	0.317021	0.001	0.0833333	0.054
1063	0.316811	0.001	0.176471	0.048
1064	0.316602	0.002	0.231884	0.055
1065	0.316394	0.001	0.214286	0.058
1066	0.316192	0.001	1	0.06
1067	0.316394	0.002	0.470588	0.053
1068	0.316602	0.001	0.782609	0.046
1069	0.316811	0.001	0.217391	0.05
1070	0.316602	0.002	0.244898	0.05
1071	0.316394	0.001	0.1	0.067
1072	0.316192	0.002	0.306122	0.054
1073	0.316191	0.002	0.171429	0.068
1074	0.315993	0.001	0	0.053
1075	0.315793	0.001	0.28	0.056
1076	0.315593	0.001	0.25	0.056
1077	0.31539	0.002	0.45	0.054
1078	0.315593	0.001	0.266667	0.057
1079	0.31539	0.003	0.488372	0.054
1080	0.315593	0.001	0.272727	0.057
1081	0.31539	0.002	0.290323	0.525
1082	0.315229	0.002	0.361702	0.05
1083	0.315425	0.002	0.318182	0.033
1084	0.315425	0.001	0.346154	0.051
1085	0.31562	0.001	0.666667	0.05
1086	0.315812	0.002	0.0566038	0.061
1087	0.31562	0.002	0.442308	0.059
1088	0.315812	0.001	0.28	0.051
1089	0.31562	0.001	0.0434783	0.06
1090	0.315425	0.002	0.42	0.058
1091	0.31562	0.004	0.785714	0.056
1092	0.315812	0.001	0.5	0.051
1093	0.316005	0.002	0.226415	0.053
1094	0.315812	0.002	0.272727	0.051
1095	0.31562	0.001	0.2	0.059
1096	0.315425	0	0.352941	0.057
1097	0.31562	0.002	0.444444	0.066
1098	0.315812	0.001	0.75	0.057
1099	0.316005	0.001	0.125	0.054
1100	0.315812	0.001	0.4	0.058
1101	0.316005	0.001	0.34375	0.064
1102	0.316198	0.001	0.131579	0.065
1103	0.316005	0.002	0.233333	0.056
1104	0.315812	0.003	0.9	0.055
1105	0.316005	0.002	0	0.056
1106	0.315812	0.002	0.438596	0.058
1107	0.316005	0.001	0.583333	0.063
1108	0.316198	0.001	0.368421	0.066
1109	0.3164	0.002	0.258065	0.062
1110	0.316194	0.001	0.0833333	0.069
1111	0.315993	0.001	0.166667	0.054
1112	0.315793	0.002	0.117647	0.057
1113	0.315593	0.001	0.146341	0.07
1114	0.31539	0.001	0.352941	0.058
1115	0.315593	0.002	0.340909	0.06
1116	0.315793	0.002	0.46	0.059
1117	0.315993	0.001	0.047619	0.06
1118	0.315793	0.001	0.3125	0.031
1119	0.315793	0.002	0.333333	0.056
1120	0.315941	0.002	0.333333	0.057
1121	0.316083	0.002	0.527273	0.062
1122	0.316276	0.001	0.145833	0.07
1123	0.316083	0.001	0.25	0.055
1124	0.315891	0.002	0.52381	0.058
1125	0.316083	0.001	0.483871	0.072
1126	0.316281	0.002	0.428571	0.072
1127	0.316479	0.001	0.466667	0.063
1128	0.316683	0.001	0.515152	0.057
1129	0.316887	0.002	0.137255	0.064
1130	0.316683	0.001	0.277778	0.058
1131	0.316479	0.001	0.233333	0.068
1132	0.316276	0.001	0.666667	0.081
1133	0.316479	0.002	0.225806	0.068
1134	0.316276	0.001	0.583333	0.076
1135	0.316479	0.002	0.225	0.069
1136	0.316276	0.001	0.423077	0.097
1137	0.316479	0.001	0.342857	0.062
1138	0.316683	0.002	0.23913	0.061
1139	0.316479	0.001	0.0833333	0.07
1140	0.316362	0.001	0.181818	0.072
1141	0.316083	0.001	0.24	0.059
1142	0.315891	0.001	0.4375	0.062
1143	0.316083	0.003	0.232558	0.06
1144	0.315891	0.001	0.222222	0.062
1145	0.315698	0.001	0.129032	0.065
1146	0.315505	0.001	0.538462	0.065
1147	0.315698	0.002	1	0.059
1148	0.315891	0.002	0.357143	0.062
1149	0.316083	0.002	0.407407	0.064
1150	0.316276	0.004	0	0.093
1151	0.316083	0.003	0.318182	0.036
1152	0.316083	0.001	0.414634	0.094
1153	0.316276	0.003	0.285714	0.076
1154	0.316083	0.001	0.451613	0.084
1155	0.316276	0.001	0.631579	0.07
1156	0.316479	0.002	0.529412	0.066
1157	0.316683	0.002	0.666667	0.062
1158	0.316887	0.002	0.357143	0.064
1159	0.317095	0.002	0.369565	0.613
1160	0.317256	0.002	0.333333	0.069
1161	0.317377	0.002	0.625	0.061
1162	0.317577	0.001	0.25	0.064
1163	0.317377	0.001	0	0.063
1164	0.317179	0.002	0.296703	0.08
1165	0.316983	0.001	0.5	0.059
1166	0.317179	0.002	0.266667	0.061
1167	0.316983	0.003	0.909091	0.057
1168	0.317179	0.001	0.421053	0.071
1169	0.317377	0.001	0.05	0.065
1170	0.317179	0.001	0.307692	0.034
1171	0.317179	0.002	0.307692	0.031
1172	0.317179	0.002	0.588235	0.084
1173	0.317377	0.001	0.142857	0.066
1174	0.317179	0.002	0.595745	0.068
1175	0.317377	0.002	0.606061	0.064
1176	0.317577	0.001	0.367347	0.096
1177	0.317767	0.002	0.272727	0.139
1178	0.317577	0.002	0	0.062
1179	0.317377	0.001	0.5	0.063
1180	0.31753	0.001	0.326087	0.032
1181	0.317577	0.001	0.294118	0.062
1182	0.317377	0.001	1.33333	0.065
1183	0.317573	0.001	0.5	0.101
1184	0.317767	0.002	0.184211	0.148
1185	0.317577	0.002	0.56	0.089
1186	0.317767	0.002	0.321429	0.033
1187	0.317767	0.001	0.205882	0.149
1188	0.317577	0.002	0.148148	0.064
1189	0.317377	0.001	0	0.065
1190	0.317179	0.001	0.466667	0.069
1191	0.317377	0.001	0.318182	0.041
1192	0.317377	0.002	0.285714	0.065
1193	0.317179	0.002	0.190476	0.06
1194	0.316983	0.001	0.727273	0.063
1195	0.317179	0.002	0.5	0.071
1196	0.317377	0.001	0.4375	0.064
1197	0.317577	0.002	0.15	0.064
1198	0.317377	0.001	0.333333	0.076
1199	0.317494	0.001	0.40625	0.068
1200	0.317691	0.002	0.52381	0.092
1201	0.317861	0.002	0.322034	0.054
1202	0.317752	0.002	0.181818	0.074
1203	0.317694	0.002	0.466667	0.067
1204	0.317863	0.001	0.52381	0.063
1205	0.318033	0.001	0.482759	0.063
1206	0.318202	0.001	0.4	0.065
1207	0.318372	0.002	0.3	0.062
1208	0.318232	0.001	0.357143	0.064
1209	0.318399	0.002	0.218182	0.073
1210	0.318232	0.002	0.84375	0.072
1211	0.318399	0.001	0.441176	0.073
1212	0.318566	0.002	0.0909091	0.066
1213	0.318399	0.001	0.3125	0.034
1214	0.318399	0.001	0.214286	0.067
1215	0.318232	0.002	0.1875	0.067
1216	0.318066	0.002	0.525	0.068
1217	0.318232	0.002	0.135593	0.07
1218	0.318066	0.002	0.363636	0.066
1219	0.318232	0.001	0.578947	0.065
1220	0.318399	0.002	0.0714286	0.072
1221	0.318232	0.002	0.703704	0.065
1222	0.318399	0.002	0.333333	0.071
1223	0.31848	0.001	0.210526	0.066
1224	0.318316	0.001	0.75	0.066
1225	0.31848	0.001	0.454545	0.067
1226	0.318644	0.001	0.355932	0.697
1227	0.318774	0.001	0.214286	0.07
1228	0.318613	0.001	0.236364	0.073
1229	0.318455	0.002	0.388889	0.072
1230	0.318616	0.001	0.545455	0.065
1231	0.318772	0.001	0.315789	0.039
1232	0.318772	0.002	0.2	0.078
1233	0.318613	0.001	0.170213	0.071
1234	0.318455	0.001	0.121212	0.072
1235	0.318296	0.001	0.423077	0.066
1236	0.318455	0.002	0.4	0.064
1237	0.318613	0.001	0.1	0.068
1238	0.318351	0.001	0.0454545	0.07
1239	0.318296	0.002	0.454545	0.068
1240	0.318455	0.003	0.0434783	0.073
1241	0.318296	0.001	0.317073	0.04
1242	0.318296	0.002	0.652174	0.068
1243	0.318455	0.001	0.205882	0.07
1244	0.318296	0.002	0.348837	0.067
1245	0.318455	0.001	0.333333	0.07
1246	0.318531	0.002	0.5	0.072
1247	0.318687	0.003	0.28125	0.085
1248	0.318531	0.003	0.409091	0.082
1249	0.318687	0.001	0.142857	0.071
1250	0.317759	0.001	0.277778	0.072
1251	0.318375	0.002	0.692308	0.065
1252	0.318531	0.001	0.0526316	0.069
1253	0.318375	0.001	0.611111	0.079
1254	0.318531	0.002	0.603175	0.083
1255	0.318687	0.002	0.423077	0.07
1256	0.318843	0.002	0.411765	0.076
1257	0.319	0.001	0	0.072
1258	0.318843	0.001	0.333333	0.085
1259	0.318912	0.002	0.222222	0.072
1260	0.318759	0.001	0.212121	0.081
1261	0.318605	0.002	0.194444	0.07
1262	0.318451	0.001	0.44186	0.069
1263	0.318605	0.001	0.145833	0.081
1264	0.318451	0.001	0.363636	0.072
1265	0.318605	0.003	0.186047	0.069
1266	0.318451	0.001	0.451613	0.071
1267	0.318605	0.001	0.342105	0.078
1268	0.318759	0.001	0.666667	0.079
1269	0.318912	0.002	0.32	0.035
1270	0.318913	0.001	0.333333	0.071
1271	0.318979	0.001	0.323529	0.038
1272	0.318979	0.003	0.351351	0.071
1273	0.319131	0.001	0.391304	0.077
1274	0.319283	0.002	0.27027	0.072
1275	0.319131	0.001	0.155556	0.075
1276	0.318979	0.001	0.157895	0.075
1277	0.318828	0.001	0.451613	0.074
1278	0.318979	0.001	0.407407	0.075
1279	0.319131	0.002	0.652174	0.079
1280	0.319252	0.001	0.458333	0.079
1281	0.319431	0.002	0.5	0.082
1282	0.319582	0.002	0.52	0.078
1283	0.319729	0.002	0.327869	0.04
1284	0.319729	0.002	0.53125	0.076
1285	0.319876	0.002	0.208333	0.077
1286	0.318278	0.001	0.44	0.078
1287	0.319876	0.001	0.484848	0.09
1288	0.320025	0.002	0.703704	0.088
1289	0.320179	0.002	0.266667	0.075
1290	0.320025	0.001	0.0769231	0.085
1291	0.319875	0.001	0.285714	0.074
1292	0.319725	0.001	0.122449	0.084
1293	0.319575	0.001	0.0909091	0.079
1294	0.319422	0.002	0.27451	0.078
1295	0.319269	0.002	0.375	0.076
1296	0.319422	0.002	0.05	0.076
1297	0.319269	0.001	0.2	0.082
1298	0.319115	0.002	0.333333	0.078
1299	0.319179	0.002	0	0.073
1300	0.319027	0.003	0.55	0.075
1301	0.319179	0.001	0.210526	0.086
1302	0.319027	0.001	0.394737	0.1
1303	0.319179	0.001	0.358974	0.077
1304	0.31933	0.002	0.275	0.082
1305	0.319179	0.001	0.333333	0.082
1306	0.319241	0.001	0.192308	0.087
1307	0.319091	0.002	0.636364	0.076
1308	0.319241	0.001	0.285714	0.079
1309	0.319091	0.001	0.444444	0.078
1310	0.319241	0.002	0.514286	0.076
1311	0.31939	0.002	0.512195	0.085
1312	0.319539	0.003	0.305556	0.089
1313	0.319481	0.002	0.294118	0.092
1314	0.319333	0.002	0	0.084
1315	0.319188	0.002	0.6	0.083
1316	0.319333	0.002	0.125	0.082
1317	0.319186	0.001	0.422222	0.085
1318	0.319333	0.002	0.566667	0.083
1319	0.319481	0.002	0.434783	0.091
1320	0.319626	0.002	0.217391	0.107
1321	0.319481	0.002	0.5	0.094
1322	0.319626	0.001	0.346154	0.083
1323	0.319769	0.001	0.175	0.081
1324	0.319626	0.002	0.263158	0.102
1325	0.319481	0.001	0.631579	0.087
1326	0.319626	0.002	0.45	0.078
1327	0.319769	0.002	0.266667	0.083
1328	0.319626	0.001	0.314286	0.044
1329	0.319626	0.001	0.585366	0.108
1330	0.319769	0.001	0.285714	0.091
1331	0.319626	0.001	0.0909091	0.101
1332	0.319481	0.002	0.512821	0.09
1333	0.319626	0.003	0.107143	0.1
1334	0.319481	0.001	0.458333	0.087
1335	0.319626	0.003	0.360656	0.086
1336	0.319833	0.002	0.2	0.083
1337	0.319629	0.001	0.458333	0.083
1338	0.319771	0.002	0.411765	0.081
1339	0.319915	0.001	0.625	0.106
1340	0.320059	0.003	0.366667	0.086
1341	0.320207	0.002	0.416667	0.092
1342	0.320356	0.002	0	0.123
1343	0.320207	0.002	0.117647	0.094
1344	0.320059	0.002	0.714286	0.091
1345	0.320207	0.001	0.235294	0.091
1346	0.320059	0.001	0.1875	0.089
1347	0.319914	0.002	0.540541	0.103
1348	0.320059	0.002	0.075	0.088
1349	0.319914	0.001	0.08	0.083
1350	0.319776	0.002	0	0.085
1351	0.319629	0.001	0.0526316	0.108
1352	0.319483	0.004	0.372881	0.103
1353	0.319629	0.001	0.411765	0.084
1354	0.319771	0.002	0.388889	0.088
1355	0.319914	0.003	0.363636	0.121
1356	0.320059	0.002	0.489796	0.103
1357	0.320207	0.002	0.615385	0.118
1358	0.320356	0.001	0.318182	0.045
1359	0.320356	0.004	0.235294	0.124
1360	0.320207	0.002	0.261905	0.084
1361	0.320059	0.002	0.346939	0.09
1362	0.320207	0.001	0.592593	0.101
1363	0.320356	0.001	0.0645161	0.124
1364	0.320215	0.001	0.333333	0.086
1365	0.320253	0.001	0.315789	0.046
1366	0.320253	0.001	0.464286	0.097
1367	0.320398	0.001	0.243243	0.123
1368	0.320253	0.002	0.645161	0.104
1369	0.320398	0.001	0.6	0.085
1370	0.320538	0.002	0.0833333	0.082
1371	0.320398	0.001	0.0833333	0.128
1372	0.320253	0.001	0.0909091	0.093
1373	0.320106	0.003	0.225	0.104
1374	0.319962	0.002	0.483871	0.111
1375	0.320106	0.001	0.540541	0.104
1376	0.320252	0.001	0.75	0.104
1377	0.320398	0.003	0.655172	0.094
1378	0.320538	0.002	0.166667	0.105
1379	0.320398	0.002	0.0833333	0.128
1380	0.320253	0.002	0.25	0.092
1381	0.320106	0.002	0	0.1
1382	0.319962	0.001	0.206897	0.087
1383	0.319822	0.001	0	0.091
1384	0.319681	0.001	0.176471	0.101
1385	0.319539	0.001	0.548387	0.099
1386	0.319681	0.001	0.388889	0.089
1387	0.319822	0.002	0.142857	0.088
1388	0.319681	0.001	0.75	0.091
1389	0.319822	0.003	0.35	0.086
1390	0.319962	0.001	0.341463	0.128
1391	0.320106	0.003	0.714286	0.104
1392	0.320253	0.001	0.346939	0.101
1393	0.320398	0.001	0.529412	0.095
1394	0.320538	0.001	0.309524	0.085
1395	0.320524	0.001	0.1875	0.094
1396	0.320385	0.001	0.190476	0.135
1397	0.320242	0.001	0.233333	0.092
1398	0.320098	0.001	0.378378	0.105
1399	0.320242	0.001	0.5625	0.103
1400	0.320381	0.001	0.157895	0.126
1401	0.320242	0.002	0.264706	0.108
1402	0.320098	0.002	0.631579	0.093
1403	0.320242	0.002	0.391304	0.102
1404	0.320385	0.002	0.352941	0.091
1405	0.320524	0.001	0.257143	0.094
1406	0.320385	0.002	0.315789	0.051
1407	0.320385	0.001	0.484848	0.102
1408	0.320548	0.001	0.166667	0.095
1409	0.320385	0.001	0.571429	0.095
1410	0.320524	0.003	0.708333	0.107
1411	0.320663	0.002	0.25	0.097
1412	0.320524	0.002	0.18	0.099
1413	0.320385	0.002	0.233333	0.141
1414	0.320242	0.001	0.448276	0.109
1415	0.320385	0.002	0.470588	0.097
1416	0.320524	0.001	0.3125	0.05
1417	0.320524	0.001	0.297297	0.094
1418	0.320385	0.001	0.25	0.139
1419	0.320242	0.001	0.464286	0.103
1420	0.320385	0.001	0.652174	0.095
1421	0.320524	0.001	0.272727	0.099
1422	0.320385	0.002	0.325	0.054
1423	0.320385	0.002	0.358491	0.094
1424	0.320524	0.001	0.272727	0.099
1425	0.320385	0.003	0.4	0.099
1426	0.320524	0.003	0.458333	0.093
1427	0.320663	0.001	0.0769231	0.097
1428	0.320524	0.001	0.142857	0.097
1429	0.320385	0.002	0.45	0.096
1430	0.320525	0.002	0.130435	0.104
1431	0.320385	0.003	0.5	0.098
1432	0.320524	0.003	0.176471	0.096
1433	0.320385	0.002	0.5	0.097
1434	0.320524	0.003	0.0833333	0.102
1435	0.320385	0.001	0.0666667	0.138
1436	0.320242	0.002	0.4	0.114
1437	0.320385	0.001	0.222222	0.139
1438	0.320242	0.002	0.234043	0.11
1439	0.320098	0.003	0.142857	0.111
1440	0.319956	0.002	0.307692	0.097
1441	0.319925	0.002	0.2	0.102
1442	0.319788	0.001	0.46875	0.1
1443	0.319925	0.001	0.153846	0.1
1444	0.319788	0.002	0.533333	0.096
1445	0.319925	0.002	0.515152	0.122
1446	0.320064	0.001	0.236364	0.119
1447	0.319925	0.001	0	0.102
1448	0.319788	0.001	0.583333	0.105
1449	0.319925	0.003	0.283019	0.11
1450	0.319788	0.002	0.153846	0.101
1451	0.319651	0.002	0.25	0.141
1452	0.319512	0.001	0.173913	0.117
1453	0.31937	0.012	0.206897	0.11
1454	0.319227	0.002	0.25	0.101
1455	0.319084	0.001	0.0952381	0.978
1456	0.318956	0.001	0.485714	0.108
1457	0.319097	0.002	0.431373	0.107
1458	0.319238	0.002	0.222222	0.101
1459	0.319097	0.002	0.36	0.103
1460	0.319238	0.002	0.526316	0.105
1461	0.319379	0.002	0.137931	0.103
1462	0.319238	0.001	0.507042	0.112
1463	0.319379	0.002	0.24	0.105
1464	0.319238	0.002	0.4375	0.115
1465	0.319378	0.001	0.136364	0.107
1466	0.319238	0.002	0.169014	0.117
1467	0.319097	0.002	0.625	0.104
1468	0.319238	0.002	0.454545	0.104
1469	0.319379	0.002	0.34	0.119
1470	0.319519	0.002	0.369565	0.112
1471	0.319658	0.001	0.255814	0.136
1472	0.319519	0.002	0.315789	0.053
1473	0.319519	0.001	0.409091	0.112
1474	0.319658	0.002	0.229167	0.133
1475	0.319519	0.001	0.428571	0.119
1476	0.319658	0.001	0.619048	0.102
1477	0.319795	0.002	0.666667	0.109
1478	0.319932	0.002	0.264706	0.103
1479	0.319795	0.001	0.344828	0.111
1480	0.319932	0.001	0.606557	0.139
1481	0.320071	0.001	1.4	0.115
1482	0.320213	0.003	0.448276	0.13
1483	0.320355	0.001	0.171429	0.146
1484	0.320213	0.002	0.381579	0.143
1485	0.320355	0.003	0.28125	0.149
1486	0.320211	0.002	0.45	0.137
1487	0.320355	0.001	0.375	0.113
1488	0.320492	0.001	0.375	0.904
1489	0.320614	0.002	0.285714	0.116
1490	0.320478	0.002	0	0.151
1491	0.320344	0.001	0.157895	0.111
1492	0.320203	0.002	0.571429	0.113
1493	0.320344	0.001	0.195652	0.115
1494	0.320203	0.002	0.285714	0.117
1495	0.320063	0.002	0.689655	0.112
1496	0.320203	0.001	0.326531	0.062
1497	0.320203	0.003	0.322581	0.058
1498	0.320203	0.001	0.472527	0.152
1499	0.320343	0.002	0.384615	0.127
1500	0.320479	0.001	0.2	0.149
