Instance 	 Prediction 	 Time to predict 	 HTER 	 Time to retrain
51	0.23714	0.003	0.333333	0.006
52	0.240773	0.004	0.166667	0.011
53	0.235307	0.004	0.736842	0.009
54	0.246885	0.002	0.102564	0.007
55	0.246665	0.004	0.181818	0.016
56	0.253318	0.003	0.545455	0.013
57	0.233008	0.003	0.607143	0.006
58	0.246104	0.006	0.266667	0.008
59	0.232224	0.004	0.275862	0.01
60	0.245291	0.004	0	0.02
61	0.220133	0.004	0	0.018
62	0.232113	0.003	0.145833	0.012
63	0.23413	0.003	0.272727	0.005
64	0.244088	0.003	0.316667	0.006
65	0.240661	0.001	0.354167	0.003
66	0.235477	0.002	0.233333	0.002
67	0.214563	0.002	0.36	0.007
68	0.247013	0.005	0.411765	0.008
69	0.246132	0.004	0.217391	0.006
70	0.24404	0.004	0.5	0.006
71	0.246107	0.005	0.441176	0.032
72	0.245434	0.002	0.433333	0.004
73	0.242542	0.003	0.5	0.004
74	0.244653	0.003	0.264706	0.003
75	0.245428	0.002	0.347826	0.002
76	0.23059	0.001	0.5625	0.004
77	0.244146	0.002	0.277778	0.004
78	0.246315	0.003	0.4	0.004
79	0.254395	0.004	0.391304	0.004
80	0.260659	0.003	0.383333	0.023
81	0.253081	0.004	0.153846	0.007
82	0.235206	0.003	0.323529	0.004
83	0.235837	0.001	0.5	0.002
84	0.241047	0.001	0.266667	0.002
85	0.232459	0.002	0.461538	0.006
86	0.232851	0.003	0.235294	0.006
87	0.231586	0.003	0.34	0.005
88	0.228216	0.002	0.608696	0.002
89	0.24381	0.001	0.347826	0.002
90	0.257384	0.001	0.324324	0.006
91	0.257154	0.002	0.235294	0.007
92	0.251949	0.003	0.548387	0.006
93	0.261287	0.008	0.5	0.005
94	0.255414	0.006	0.297297	0.008
95	0.256174	0.004	0.212766	0.004
96	0.25623	0.002	0.0652174	0.009
97	0.260983	0.004	0.194444	0.007
98	0.263319	0.003	0.269231	0.009
99	0.263224	0.003	0.26	0.008
100	0.262312	0.005	0.322581	0.006
101	0.265188	0.003	0.357143	0.008
102	0.265871	0.003	0.133333	0.007
103	0.270369	0.005	0.03125	0.014
104	0.275044	0.003	0.243243	0.003
105	0.276853	0.004	0.8125	0.005
106	0.259594	0.004	0.594595	0.007
107	0.251188	0.004	0.204545	0.012
108	0.25097	0.005	0.5	0.003
109	0.263499	0.003	0.589744	0.007
110	0.227209	0.006	0.363636	0.007
111	0.264932	0.003	0.454545	0.007
112	0.268257	0.004	0.391304	0.006
113	0.268122	0.002	0.3	0.006
114	0.262994	0.002	0.666667	0.004
115	0.266504	0.004	0.25	0.008
116	0.267923	0.003	0.142857	0.005
117	0.254164	0.002	0	0.002
118	0.279472	0.001	0.52	0.003
119	0.272052	0.001	0.5	0.005
120	0.257453	0.002	0.181818	0.006
121	0.262786	0.003	0.185185	0.009
122	0.263445	0.003	0	0.005
123	0.232892	0.004	0.209302	0.009
124	0.232731	0.005	0.434783	0.006
125	0.237454	0.003	0.478261	0.004
126	0.240211	0.002	0.291667	0.012
127	0.240532	0.003	0.4	0.003
128	0.237635	0.002	0.28	0.01
129	0.235319	0.003	0.313253	0.023
130	0.243319	0.002	0.259259	0.008
131	0.241462	0.003	0.1875	0.006
132	0.205833	0.004	0.428571	0.007
133	0.250651	0.003	0.0526316	0.003
134	0.238188	0.001	0.392857	0.002
135	0.235619	0.001	0.513514	0.005
136	0.246399	0.003	0.357143	0.004
137	0.244169	0.001	0.21875	0.004
138	0.233752	0.001	0.708333	0.003
139	0.258457	0.002	0.214286	0.005
140	0.27117	0.004	0.384615	0.01
141	0.255692	0.003	0.571429	0.004
142	0.265471	0.003	0.5	0.005
143	0.26487	0.004	0.571429	0.005
144	0.290704	0.002	0.318182	0.008
145	0.28573	0.007	0.85	0.004
146	0.278016	0.003	0.378378	0.003
147	0.275827	0.003	0.1	0.005
148	0.267138	0.003	0.185185	0.004
149	0.266828	0.002	0.0333333	0.006
150	0.270867	0.003	0.25	0.004
151	0.257431	0.003	0.428571	0.006
152	0.275612	0.003	0.8	0.004
153	0.264445	0.003	0.583333	0.005
154	0.288833	0.003	0.47619	0.009
155	0.285566	0.005	0.222222	0.006
156	0.285781	0.006	0.5	0.008
157	0.297881	0.003	0.216216	0.004
158	0.299824	0.001	0.370968	0.011
159	0.296307	0.004	0.0681818	0.009
160	0.30267	0.004	0.454545	0.006
161	0.29506	0.003	0.62963	0.006
162	0.311666	0.003	0.404762	0.008
163	0.309745	0.002	0.26087	0.009
164	0.314704	0.004	0.342105	0.005
165	0.313162	0.001	0.3125	0.003
166	0.31272	0.002	0.216216	0.008
167	0.30958	0.001	0.225806	0.004
168	0.312148	0.002	0	0.004
169	0.304783	0.002	0.25	0.005
170	0.313153	0.003	0.314286	0.003
171	0.303109	0.002	0.434783	0.007
172	0.312874	0.003	0.119403	0.015
173	0.313737	0.003	0.298246	0.008
174	0.314088	0.004	0.454545	0.007
175	0.313721	0.003	0.166667	0.009
176	0.315927	0.005	0	0.005
177	0.321544	0.003	0.15	0.003
178	0.322978	0.002	0.172414	0.003
179	0.317424	0.002	0.0384615	0.006
180	0.309673	0.002	0.111111	0.002
181	0.312981	0.002	0.342105	0.003
182	0.314729	0.002	0.54902	0.009
183	0.326169	0.004	0.34375	0.012
184	0.318944	0.004	0.310345	0.007
185	0.0520974	0.001	0.9	0.005
186	0.397805	0.005	0.631579	0.012
187	0.401756	0.006	0.3125	0.005
188	0.404167	0.002	0.454545	0.006
189	0.403922	0.005	0.210526	0.003
190	0.402838	0.002	0.227273	0.003
191	0.398174	0.002	0.0769231	0.008
192	0.395341	0.004	0.0909091	0.012
193	0.400442	0.007	0.527778	0.008
194	0.396145	0.002	0.518519	0.014
195	0.40136	0.007	0.173913	0.01
196	0.400623	0.062	0.125	0.052
197	0.395557	0.003	0.105263	0.006
198	0.394729	0.012	0.4375	0.016
199	0.393386	0.012	0.457143	0.011
200	0.393068	0.018	0.342105	0.019
201	0.395764	0.002	0.0769231	0.006
202	0.39413	0.003	0.333333	0.004
203	0.393677	0.004	0.434783	0.006
204	0.393575	0.014	0.464286	0.009
205	0.391475	0.005	0.192982	0.016
206	0.382084	0.004	0.333333	0.006
207	0.391127	0.004	0.653846	0.018
208	0.366895	0.017	0.24	0.011
209	0.387458	0.013	0.18	0.015
210	0.387514	0.004	0.319149	0.017
211	0.387158	0.006	0.411765	0.002
212	0.391686	0.002	0.666667	0.005
213	0.383044	0.004	0.0909091	0.007
214	0.37908	0.006	0.212121	0.024
215	0.384778	0.006	0.355932	0.011
216	0.381023	0.002	0.271186	0.046
217	0.379029	0.025	0.0666667	0.02
218	0.381266	0.014	0.357143	0.017
219	0.385899	0.006	0.384615	0.033
220	0.382913	0.006	0.16129	0.013
221	0.375214	0.006	0	0.006
222	0.335211	0.005	0.168539	0.018
223	0.337764	0.005	0.607143	0.007
224	0.318525	0.009	0.153846	0.011
225	0.335459	0.01	0.229167	0.016
226	0.33553	0.01	0.142857	0.005
227	0.331781	0.002	0.413793	0.012
228	0.33068	0.006	0.206897	0.013
229	0.327332	0.005	0	0.011
230	0.332717	0.009	0.190476	0.017
231	0.336502	0.007	0.205128	0.015
232	0.338561	0.005	0.125	0.08
233	0.337147	0.007	0.5	0.01
234	0.344771	0.003	0.0526316	0.014
235	0.339883	0.01	0.266667	0.024
236	0.341311	0.002	0.4375	0.007
237	0.345873	0.002	0.346154	0.002
238	0.350559	0.002	0.538462	0.003
239	0.343063	0.001	0.391304	0.004
240	0.336098	0.004	0	0.005
241	0.331401	0.002	0.36	0.009
242	0.329821	0.003	0.363636	0.003
243	0.331694	0.002	0.5	0.002
244	0.331224	0.003	0.272727	0.004
245	0.326853	0.002	0.372093	0.013
246	0.330296	0.003	0.352941	0.005
247	0.331426	0.003	0.413793	0.005
248	0.329136	0.002	0.447368	0.007
249	0.333552	0.003	0.28125	0.004
250	0.330553	0.002	0.266667	0.004
251	0.317893	0.001	0	0.003
252	0.30345	0.002	0.6	0.004
253	0.293746	0.001	0.0769231	0.003
254	0.302129	0.001	0.257143	0.005
255	0.304778	0.003	0.235294	0.005
256	0.30486	0.002	0.6875	0.002
257	0.299462	0.002	0.0666667	0.01
258	0.300628	0.002	0.292683	0.005
259	0.288448	0.003	0.153846	0.004
260	0.307945	0.002	0.4	0.005
261	0.306181	0.003	0.5	0.006
262	0.307559	0.002	0.346154	0.003
263	0.312691	0.002	0.3	0.004
264	0.309007	0.004	0.184615	0.012
265	0.311696	0.002	0.357143	0.004
266	0.294027	0.002	0.625	0.002
267	0.305552	0.001	0.551724	0.003
268	0.311035	0.006	0.333333	0.007
269	0.308692	0.001	0.287234	0.039
270	0.309156	0.006	0.283019	0.02
271	0.311165	0.003	0.777778	0.005
272	0.345186	0.006	0.315789	0.005
273	0.347641	0.002	0.555556	0.003
274	0.343044	0.005	0.38806	0.013
275	0.341601	0.003	0.285714	0.006
276	0.336107	0.001	0.3	0.005
277	0.339199	0.003	0.565217	0.005
278	0.337851	0.002	0.3	0.008
279	0.340895	0.001	0.0384615	0.003
280	0.338218	0.001	0.45	0.008
281	0.334462	0.004	0.153846	0.007
282	0.329643	0.001	0.444444	0.003
283	0.336529	0.002	0.6	0.004
284	0.356429	0.001	0.461538	0.003
285	0.336355	0.001	0.142857	0.002
286	0.35897	0.004	0.136364	0.008
287	0.36223	0.001	0.423077	0.002
288	0.359602	0.001	0.45283	0.013
289	0.357432	0.002	0.242424	0.004
290	0.358331	0.003	0.153846	0.005
291	0.363192	0.002	0.346939	0.009
292	0.358997	0.002	0.326087	0.004
293	0.363618	0.002	0.375	0.005
294	0.363606	0.004	0.375	0.003
295	0.365921	0.001	0.5	0.004
296	0.361028	0.002	0.326531	0.012
297	0.359075	0.001	0.533333	0.002
298	0.35596	0.002	0.111111	0.004
299	0.354239	0.003	0.148148	0.006
300	0.358111	0.002	0	0.008
301	0.355318	0.004	0	0.005
302	0.35001	0.005	0	0.007
303	0.340151	0.005	0.489362	0.009
304	0.340951	0.003	0.266667	0.007
305	0.337693	0.003	0.5	0.003
306	0.337681	0.003	0.405405	0.009
307	0.336971	0.003	0.410959	0.01
308	0.344681	0.003	0.727273	0.004
309	0.348818	0.002	0.513514	0.007
310	0.344877	0.002	0.0882353	0.008
311	0.301338	0.002	0.444444	0.002
312	0.360516	0.003	0.25	0.002
313	0.360968	0.002	0.291667	0.003
314	0.359142	0.003	0.472222	0.008
315	0.352958	0.003	0.4375	0.003
316	0.361335	0.002	0.21875	0.01
317	0.365732	0.002	0.166667	0.006
318	0.364738	0.002	0.266667	0.007
319	0.361453	0.004	0.321429	0.008
320	0.361146	0.002	0.283784	0.016
321	0.358708	0.002	0.258065	0.005
322	0.362263	0.002	0.33871	0.024
323	0.340103	0.001	0.407407	0.003
324	0.357304	0.002	0.125	0.005
325	0.360762	0.005	0.259259	0.003
326	0.359289	0.002	0.138889	0.004
327	0.354523	0.001	0.333333	0.005
328	0.358787	0.004	0.54	0.006
329	0.356244	0.006	0.5	0.007
330	0.353586	0.001	0.310345	0.003
331	0.353867	0.003	0.305556	0.008
332	0.349487	0.002	0.25	0.005
333	0.350388	0.004	0.235294	0.004
334	0.352882	0.003	0.285714	0.004
335	0.352911	0.003	0.254902	0.008
336	0.348099	0.002	0.285714	0.007
337	0.35524	0.004	0.178571	0.004
338	0.35437	0.002	0.388889	0.002
339	0.356135	0.001	0.311111	0.006
340	0.357132	0.001	0.352941	0.003
341	0.357822	0.002	0.333333	0.011
342	0.359949	0.002	0.5	0.004
343	0.352135	0.001	0.181818	0.002
344	0.354948	0.002	0.444444	0.004
345	0.354876	0.003	0.196078	0.022
346	0.350832	0.005	0.171429	0.007
347	0.352755	0.007	0.411765	0.005
348	0.355703	0.002	0.212121	0.009
349	0.353557	0.002	0.309524	0.007
350	0.354883	0.003	0.24	0.004
351	0.357137	0.002	0.5	0.007
352	0.356972	0.002	0.181818	0.003
353	0.357827	0.002	0.1875	0.02
354	0.329349	0.004	0.545455	0.007
355	0.358633	0.004	0.242424	0.007
356	0.363605	0.003	0.314286	0.006
357	0.357706	0.003	0.225806	0.012
358	0.362721	0.002	0.181818	0.004
359	0.360678	0.002	0.451613	0.002
360	0.345985	0.002	0.15	0.004
361	0.363142	0.002	0.5	0.005
362	0.356915	0.003	0.318182	0.002
363	0.362421	0.002	0.268293	0.004
364	0.362747	0.003	0.357143	0.003
365	0.36009	0.003	0.360465	0.022
366	0.365202	0.003	0.0833333	0.021
367	0.370764	0.004	0.428571	0.006
368	0.365432	0.004	0.8	0.006
369	0.354726	0.003	0.578947	0.006
370	0.353014	0.005	0.269231	0.006
371	0.353796	0.003	0.375	0.006
372	0.355796	0.003	0.315068	0.027
373	0.353945	0.004	0.294118	0.003
374	0.359111	0.002	0.5	0.011
375	0.352333	0.001	0.181818	0.003
376	0.34141	0.001	0.153846	0.003
377	0.339916	0.002	0.25	0.003
378	0.341078	0.003	0.340426	0.008
379	0.337771	0.002	0.714286	0.004
380	0.356012	0.002	0.483871	0.004
381	0.349604	0.002	0.714286	0.002
382	0.357766	0.001	0.576923	0.005
383	0.360356	0.002	0.25	0.002
384	0.358405	0.003	0.538462	0.002
385	0.362143	0.002	0.4	0.005
386	0.360683	0.003	0.285714	0.012
387	0.366296	0.003	0.55	0.002
388	0.366466	0.002	0.462963	0.005
389	0.362283	0.002	0.531915	0.009
390	0.359609	0.001	0.2	0.002
391	0.356345	0.001	0.153846	0.002
392	0.348588	0.002	0.517241	0.004
393	0.35315	0.004	0.363636	0.006
394	0.350072	0.002	0.432432	0.005
395	0.348312	0.002	0.208333	0.004
396	0.351258	0.001	0.363636	0.002
397	0.35027	0.002	0.674419	0.005
398	0.35044	0.001	0.6	0.004
399	0.343828	0.001	0.26087	0.004
400	0.347551	0.003	0.833333	0.005
401	0.377588	0.002	0.230769	0.004
402	0.372858	0.002	0.181818	0.005
403	0.367785	0.001	0.25	0.003
404	0.364317	0.001	0.366667	0.003
405	0.338096	0.002	0	0.005
406	0.362194	0.003	0.333333	0.002
407	0.3592	0.001	0	0.002
408	0.361657	0.002	0.171429	0.004
409	0.361588	0.002	0.259259	0.002
410	0.36026	0.002	0	0.013
411	0.364064	0.002	0.0731707	0.004
412	0.359907	0.002	0.206897	0.002
413	0.359181	0.003	0.244898	0.009
414	0.361142	0.002	0.297297	0.006
415	0.362766	0.004	0.25	0.009
416	0.36009	0.004	0.444444	0.005
417	0.362696	0.003	0.157895	0.003
418	0.3602	0.001	0.2	0.006
419	0.359601	0.002	0.26087	0.003
420	0.354613	0.002	0	0.002
421	0.346732	0.002	0.25	0.002
422	0.325059	0.003	0.612903	0.004
423	0.345487	0.001	0.181818	0.002
424	0.348678	0.002	0.3125	0.002
425	0.349742	0.002	0.138889	0.007
426	0.352805	0.003	0.114286	0.003
427	0.353434	0.002	0.458333	0.008
428	0.354433	0.002	0.517241	0.003
429	0.353315	0.001	0.3	0.008
430	0.351185	0.003	0.290909	0.007
431	0.345482	0.004	0.285714	0.002
432	0.351312	0.002	0.12	0.003
433	0.32054	0.001	0.388889	0.003
434	0.347753	0.003	0.145161	0.014
435	0.349601	0.003	0.144444	0.021
436	0.342886	0.003	0.0625	0.004
437	0.336669	0.002	0.237288	0.008
438	0.342816	0.002	0.152542	0.004
439	0.336659	0.002	0.268657	0.023
440	0.339917	0.002	0.318182	0.003
441	0.3366	0.001	0.228571	0.006
442	0.337828	0.005	0.142857	0.004
443	0.332481	0.001	0.425532	0.002
444	0.336407	0.001	0.326087	0.002
445	0.337066	0.001	0.606061	0.004
446	0.333114	0.003	0.52381	0.009
447	0.333431	0.002	0.333333	0.01
448	0.33282	0.002	0.433333	0.003
449	0.332899	0.002	0.25	0.004
450	0.331556	0.002	0.5	0.005
451	0.332562	0.002	0.325581	0.009
452	0.33229	0.003	0.409091	0.002
453	0.332282	0.004	0.405405	0.006
454	0.327081	0.002	0.5	0.002
455	0.318788	0.001	0.2	0.003
456	0.330083	0.002	0.27451	0.008
457	0.334493	0.002	0.4	0.002
458	0.334186	0.002	1	0.002
459	0.337071	0.002	0	0.003
460	0.313493	0.001	0.153846	0.003
461	0.322499	0.002	0	0.002
462	0.281702	0.002	0.142857	0.002
463	0.26477	0.004	0.285714	0.005
464	0.269073	0.002	0.324324	0.002
465	0.264786	0.002	0.28125	0.008
466	0.265428	0.002	0.44898	0.006
467	0.262532	0.002	0.166667	0.007
468	0.2706	0.002	0.275	0.017
469	0.269397	0.002	0.45	0.003
470	0.268751	0.003	0.392857	0.005
471	0.269194	0.002	0.5	0.003
472	0.26552	0.001	0.21875	0.002
473	0.270014	0.001	0.25	0.005
474	0.268787	0.002	0.253521	0.018
475	0.268319	0.001	0.4	0.003
476	0.27026	0.001	0.769231	0.006
477	0.268151	0.002	0.6	0.002
478	0.286443	0.003	0.458333	0.01
479	0.2883	0.003	0.472222	0.004
480	0.286418	0.003	0.0833333	0.004
481	0.286538	0.002	0.347826	0.003
482	0.289748	0.002	0.454545	0.002
483	0.286125	0.002	0.428571	0.008
484	0.288288	0.002	0.433962	0.004
485	0.288967	0.001	0.473684	0.003
486	0.289855	0.003	0.375	0.003
487	0.284322	0.002	0	0.003
488	0.279993	0.002	0.216216	0.003
489	0.25098	0.004	0.619048	0.004
490	0.287672	0.003	0.428571	0.003
491	0.277169	0.002	0.272727	0.004
492	0.277776	0.002	0.565217	0.003
493	0.280523	0.003	0.409091	0.003
494	0.103217	0.002	0.555556	0.004
495	0.290144	0.002	0.153846	0.006
496	0.290101	0.003	0.294118	0.005
497	0.289901	0.003	0.352941	0.003
498	0.290386	0.002	0.481481	0.002
499	0.291213	0.002	0.111111	0.005
500	0.286422	0.004	0.166667	0.002
501	0.288421	0.002	0.3	0.004
502	0.288085	0.004	0.25	0.011
503	0.286875	0.002	0.265306	0.008
504	0.289013	0.003	0.311111	0.006
505	0.285427	0.004	0	0.003
506	0.285561	0.003	0	0.006
507	0.276067	0.003	0.272727	0.007
508	0.281395	0.002	0.333333	0.007
509	0.279638	0.003	0.136364	0.002
510	0.281072	0.002	0.733333	0.002
511	0.278526	0.002	0.354839	0.006
512	0.270081	0.003	0.26087	0.002
513	0.274685	0.002	0.344828	0.004
514	0.277003	0.002	0.385965	0.006
515	0.276327	0.002	0.416667	0.003
516	0.270003	0.001	0.466667	0.003
517	0.274422	0.001	0.444444	0.005
518	0.272925	0.003	0.533333	0.005
519	0.27945	0.002	0.2	0.002
520	0.276536	0.001	0.526316	0.006
521	0.269864	0.002	0.444444	0.005
522	0.270173	0.002	0.541667	0.004
523	0.273919	0.003	0.466667	0.005
524	0.270961	0.002	0.222222	0.004
525	0.270063	0.003	0.21875	0.007
526	0.268409	0.002	0.235294	0.006
527	0.268825	0.003	0.439024	0.005
528	0.267935	0.001	0.482759	0.003
529	0.275163	0.002	0.375	0.003
530	0.263317	0.001	0.352941	0.004
531	0.267031	0.001	0.212121	0.016
532	0.270471	0.002	0.538462	0.004
533	0.267302	0.002	0.3	0.014
534	0.255892	0.002	0.571429	0.002
535	0.274246	0.002	0.454545	0.004
536	0.2834	0.003	0.5	0.003
537	0.277815	0.003	1	0.005
538	0.354324	0.001	0.365854	0.004
539	0.35166	0.002	0.457143	0.004
540	0.351019	0.002	0.333333	0.006
541	0.35571	0.002	0.522727	0.004
542	0.350318	0.001	0.275	0.005
543	0.355011	0.003	0.413793	0.005
544	0.356731	0.001	0.25	0.004
545	0.359586	0.002	0.333333	0.002
546	0.354728	0.002	0.205128	0.005
547	0.353888	0.001	0.272727	0.003
548	0.360483	0.002	0.227273	0.003
549	0.354101	0.003	0	0.003
550	0.353457	0.001	0.0555556	0.004
551	0.358181	0.002	0.588235	0.003
552	0.357054	0.003	0.508197	0.019
553	0.355689	0.002	0.327586	0.006
554	0.354234	0.002	0.592593	0.006
555	0.352731	0.003	0.25	0.002
556	0.34788	0.001	0.142857	0.002
557	0.298886	0.002	0.5	0.004
558	0.361363	0.002	0.529412	0.003
559	0.356681	0.001	0.0714286	0.002
560	0.35984	0.001	0.264706	0.012
561	0.362243	0.002	0.52	0.002
562	0.360281	0.002	0.384615	0.003
563	0.358159	0.002	0.322581	0.003
564	0.358071	0.004	0.369048	0.014
565	0.357584	0.003	0.4	0.005
566	0.361871	0.003	0.6	0.005
567	0.364689	0.002	0.142857	0.002
568	0.366173	0.002	0.5	0.003
569	0.366093	0.002	0.714286	0.003
570	0.372554	0.002	0.461538	0.002
571	0.370083	0.004	0.4375	0.005
572	0.366476	0.002	0.25	0.003
573	0.367929	0.002	0.5	0.002
574	0.372088	0.001	0.384615	0.007
575	0.374129	0.002	0.390244	0.005
576	0.374711	0.001	0.170732	0.015
577	0.368959	0.002	0.25	0.004
578	0.375914	0.003	0.47619	0.006
579	0.3701	0.002	0.5	0.006
580	0.372316	0.002	0.472222	0.003
581	0.244932	0.002	0	0.002
582	0.342136	0.002	0.125	0.004
583	0.349467	0.003	0.4	0.003
584	0.345571	0.002	0.307692	0.016
585	0.343418	0.004	0.289474	0.01
586	0.332562	0.007	0.421053	0.006
587	0.350844	0.006	0.432432	0.008
588	0.344593	0.005	0.272727	0.007
589	0.347611	0.004	0.446429	0.025
590	0.35041	0.002	0.409836	0.01
591	0.325417	0.003	0.285714	0.003
592	0.344321	0.002	0.142857	0.009
593	0.3575	0.003	0.411765	0.005
594	0.353271	0.002	0.347826	0.006
595	0.344492	0.003	0.181818	0.005
596	0.345363	0.001	0.25	0.009
597	0.346897	0.004	0.313726	0.015
598	0.337779	0.005	0.166667	0.011
599	0.342439	0.03	0	0.003
600	0.334311	0.001	0.5	0.084
601	0.325986	0.003	0.419355	0.014
602	0.330317	0.005	0.157895	0.004
603	0.330313	0.002	0.255814	0.009
604	0.331413	0.003	0.5	0.007
605	0.336759	0.001	0.333333	0.009
606	0.331219	0.002	0	0.003
607	0.334788	0.001	0.27027	0.005
608	0.333255	0.002	0.342857	0.006
609	0.318664	0.005	0	0.002
610	0.328195	0.002	0.259259	0.01
611	0.330387	0.002	0.244444	0.004
612	0.332316	0.003	0.277778	0.005
613	0.334335	0.003	0.315789	0.003
614	0.332164	0.001	0.166667	0.005
615	0.329202	0.002	0	0.002
616	0.322907	0.002	0.350877	0.01
617	0.324861	0.003	0.478261	0.006
618	0.321715	0.002	0.2	0.01
619	0.328721	0.001	0.5	0.003
620	0.323474	0.001	0.32	0.004
621	0.318661	0.002	0.125	0.008
622	0.323063	0.001	0.405405	0.002
623	0.321241	0.002	0.350877	0.006
624	0.322615	0.004	0.310345	0.003
625	0.325239	0.002	0.05	0.004
626	0.323738	0.003	0.25	0.003
627	0.326987	0.003	0.26087	0.003
628	0.325498	0.002	0.355556	0.006
629	0.328577	0.002	0.695652	0.011
630	0.327265	0.003	0.322581	0.006
631	0.322568	0.002	0.354167	0.01
632	0.323329	0.001	0.105263	0.003
633	0.310985	0.002	0.321429	0.003
634	0.327299	0.002	0.35	0.008
635	0.325717	0.002	0.25	0.003
636	0.326184	0.001	0.382353	0.004
637	0.328682	0.002	0.380952	0.005
638	0.325324	0.002	0.333333	0.002
639	0.319721	0.002	0.255814	0.006
640	0.33101	0.003	0.214286	0.004
641	0.320102	0.002	0.4	0.003
642	0.31871	0.001	0.333333	0.004
643	0.323389	0.002	0.322581	0.006
644	0.320452	0.002	0.392857	0.006
645	0.319607	0.002	0.411765	0.004
646	0.31912	0.002	0.205128	0.008
647	0.32887	0.002	0.55814	0.007
648	0.324792	0.002	0.0888889	0.014
649	0.328166	0.001	0.666667	0.007
650	0.323463	0.002	0.307692	0.008
651	0.326218	0.002	0.323529	0.006
652	0.319896	0.004	0.162791	0.005
653	0.318807	0.004	0.405405	0.003
654	0.327296	0.002	0.15	0.004
655	0.324331	0.002	0.163265	0.012
656	0.319509	0.002	0.0769231	0.016
657	0.316241	0.002	0.465116	0.004
658	0.290751	0.004	0.214286	0.002
659	0.318141	0.002	0.153846	0.003
660	0.323621	0.001	0.289474	0.004
661	0.31981	0.003	0.153846	0.004
662	0.325242	0.003	0.607143	0.004
663	0.323565	0.001	0.451613	0.005
664	0.317247	0.002	0.130435	0.005
665	0.322243	0.002	0.2	0.003
666	0.321876	0.001	0.333333	0.006
667	0.307205	0.002	0.230769	0.003
668	0.322642	0.004	0	0.009
669	0.323826	0.003	0.269231	0.011
670	0.317002	0.004	0.318182	0.003
671	0.315348	0.001	0.133333	0.003
672	0.316942	0.001	0.238095	0.006
673	0.315089	0.002	0.0555556	0.003
674	0.318082	0.002	0.419355	0.003
675	0.321903	0.002	0.195652	0.006
676	0.316863	0.001	0.4	0.004
677	0.316265	0.001	0.309524	0.008
678	0.316679	0.003	0.47619	0.006
679	0.312828	0.002	0.45	0.005
680	0.315071	0.001	0.264151	0.008
681	0.318786	0.002	0.41791	0.02
682	0.31314	0.003	0.5	0.003
683	0.320528	0.001	0.121212	0.003
684	0.322268	0.002	0.315789	0.01
685	0.322508	0.001	0.321429	0.003
686	0.318727	0.002	0.315789	0.007
687	0.316439	0.001	0.333333	0.003
688	0.323789	0	0.588235	0.002
689	0.322655	0.001	0.404762	0.008
690	0.321295	0.002	0	0.005
691	0.317748	0.001	0.22807	0.012
692	0.315284	0.002	0.233333	0.004
693	0.311833	0.002	0.727273	0.005
694	0.322347	0.003	0.692308	0.002
695	0.300605	0.001	0.416667	0.006
696	0.313369	0.003	0.219512	0.003
697	0.320859	0.002	0.2	0.003
698	0.316529	0.003	0.178218	0.033
699	0.3203	0.003	0.307692	0.004
700	0.320523	0.003	0.25	0.003
701	0.308631	0.001	0.209302	0.007
702	0.323239	0.002	0.4	0.002
703	0.321273	0.003	0.222222	0.004
704	0.321311	0.002	0.2	0.005
705	0.31969	0.003	0.3125	0.003
706	0.311251	0.002	0.0909091	0.006
707	0.315393	0.002	0.301587	0.012
708	0.313623	0.005	0.181818	0.003
709	0.312381	0.002	0.214286	0.004
710	0.311903	0.008	0.0625	0.004
711	0.311386	0.002	0.37	0.043
712	0.317402	0.002	0.5	0.003
713	0.309152	0.002	0.305556	0.006
714	0.315675	0.003	0.285714	0.003
715	0.310907	0.002	0.375	0.003
716	0.313721	0.002	0.52	0.006
717	0.316798	0.004	0.333333	0.004
718	0.312019	0.002	0.333333	0.003
719	0.316117	0.002	0.55102	0.006
720	0.314634	0.002	0.138889	0.003
721	0.314081	0.002	0.64	0.005
722	0.293337	0.002	0.571429	0.004
723	0.312534	0.002	0.264151	0.021
724	0.311639	0.003	0.135135	0.005
725	0.312969	0.002	0.1	0.005
726	0.31741	0.003	0.439024	0.006
727	0.308389	0.002	0.0769231	0.003
728	0.320422	0.001	0.857143	0.005
729	0.313902	0.004	0.571429	0.004
730	0.31717	0.002	0.166667	0.003
731	0.27507	0.002	0.625	0.007
732	0.316018	0.002	0.230769	0.002
733	0.333966	0.002	0.4	0.002
734	0.326648	0.003	0.65625	0.005
735	0.326019	0.002	0.428571	0.003
736	0.325581	0.001	0.309524	0.007
737	0.320829	0.002	0	0.004
738	0.32692	0.002	0.139535	0.009
739	0.328191	0.002	0.257143	0.005
740	0.324485	0.002	0.0588235	0.007
741	0.321749	0.002	0	0.002
742	0.319613	0.002	0.142857	0.01
743	0.321863	0.002	0.296296	0.003
744	0.326677	0.002	0.470588	0.002
745	0.321521	0.002	0.176471	0.006
746	0.324801	0.002	0	0.004
747	0.326037	0.002	0.129032	0.008
748	0.320693	0.003	0.25	0.003
749	0.32415	0.002	0.142857	0.009
750	0.323932	0.002	0.368421	0.005
751	0.328715	0.002	0.5	0.005
752	0.323229	0.002	0.170732	0.003
753	0.324522	0.001	0.354167	0.007
754	0.321943	0.003	0.322581	0.005
755	0.329298	0.002	0.272727	0.003
756	0.32761	0.002	0.32	0.006
757	0.323347	0.003	0.541667	0.005
758	0.32398	0.001	0.396825	0.013
759	0.329279	0.001	0.416667	0.003
760	0.322692	0.003	0.0888889	0.009
761	0.317071	0.002	0.292683	0.009
762	0.324645	0.003	0.0784314	0.013
763	0.330182	0.002	0.047619	0.003
764	0.325268	0.002	0.142857	0.009
765	0.33	0.003	0.363636	0.003
766	0.331804	0.001	0.5	0.014
767	0.326797	0.001	0.222222	0.003
768	0.323962	0.002	0.327273	0.004
769	0.325823	0.003	0.207547	0.006
770	0.32724	0.002	0.294118	0.004
771	0.328903	0.001	0.138889	0.005
772	0.335934	0.001	0.2	0.002
773	0.327022	0.002	0.483871	0.004
774	0.324867	0.002	0.56	0.003
775	0.317421	0.001	0.28	0.003
776	0.317673	0.001	0.333333	0.002
777	0.320682	0.002	0.178571	0.008
778	0.315642	0.002	0.163934	0.007
779	0.316136	0.002	0.176471	0.008
780	0.318382	0.002	0.25	0.005
781	0.321917	0.003	0.363636	0.006
782	0.319133	0.002	0.363636	0.003
783	0.321656	0.001	0.115385	0.004
784	0.320991	0.003	0.5	0.007
785	0.322724	0.002	0.3125	0.009
786	0.317406	0.003	0.434783	0.004
787	0.319738	0.002	0.542857	0.01
788	0.316761	0.014	0.0526316	0.007
789	0.329428	0.005	0.636364	0.004
790	0.316822	0.002	0.333333	0.014
791	0.315855	0.003	0.147541	0.014
792	0.24461	0.002	0	0.006
793	0.320613	0.002	0.333333	0.014
794	0.317577	0.007	0.210526	0.004
795	0.323789	0.002	0.392857	0.002
796	0.324167	0.002	0.309859	0.01
797	0.313272	0.002	0.305556	0.006
798	0.314685	0.002	0.608696	0.003
799	0.315899	0.002	0.4	0.002
800	0.316554	0.001	0.169492	0.008
801	0.309482	0.004	0.416667	0.008
802	0.316718	0.005	0.293103	0.021
803	0.316638	0.002	0.209302	0.005
804	0.318967	0.009	0.268293	0.006
