Instance 	 Prediction 	 Time to predict 	 HTER 	 Time to retrain
1	0	0.001	0.333333	0.013
2	0.266889	0.005	0.166667	0.009
3	0.27504	0.002	0.736842	0.007
4	0.453597	0.002	0.102564	0.005
5	0.400924	0.004	0.181818	0.01
6	0.446453	0.002	0.545455	0.004
7	0.401257	0.002	0.607143	0.004
8	0.460125	0.002	0.266667	0.01
9	0.426764	0.004	0.275862	0.007
10	0.39421	0.004	0	0.016
11	0.333715	0.002	0	0.002
12	0.321284	0.002	0.145833	0.009
13	0.351985	0.002	0.272727	0.001
14	0.315392	0.002	0.316667	0.006
15	0.30107	0.002	0.354167	0.005
16	0.310698	0.003	0.233333	0.004
17	0.296482	0.004	0.36	0.004
18	0.311077	0.002	0.411765	0.01
19	0.311922	0.002	0.217391	0.004
20	0.3013	0.003	0.5	0.003
21	0.319271	0.003	0.441176	0.014
22	0.286144	0.002	0.433333	0.006
23	0.28784	0.004	0.5	0.003
24	0.287415	0.004	0.264706	0.008
25	0.296099	0.003	0.347826	0.009
26	0.301313	0.006	0.5625	0.005
27	0.317407	0.005	0.277778	0.006
28	0.294398	0.004	0.4	0.003
29	0.291609	0.003	0.391304	0.011
30	0.299002	0.003	0.383333	0.022
31	0.293897	0.003	0.153846	0.005
32	0.246835	0.004	0.323529	0.006
33	0.243445	0.003	0.5	0.004
34	0.254933	0.006	0.266667	0.004
35	0.256257	0.004	0.461538	0.005
36	0.231905	0.006	0.235294	0.008
37	0.21891	0.003	0.34	0.008
38	0.220546	0.004	0.608696	0.006
39	0.287456	0.003	0.347826	0.009
40	0.266438	0.003	0.324324	0.006
41	0.268098	0.004	0.235294	0.008
42	0.258297	0.003	0.548387	0.007
43	0.290564	0.007	0.5	0.006
44	0.262438	0.003	0.297297	0.011
45	0.249465	0.002	0.212766	0.009
46	0.262448	0.008	0.0652174	0.017
47	0.28525	0.007	0.194444	0.007
48	0.286724	0.005	0.269231	0.006
49	0.255521	0.004	0.26	0.01
50	0.273758	0.004	0.322581	0.005
51	0.290176	0.004	0.357143	0.006
52	0.298111	0.004	0.133333	0.008
53	0.30835	0.003	0.03125	0.012
54	0.29915	0.003	0.243243	0.008
55	0.33184	0.005	0.8125	0.005
56	0.279786	0.004	0.594595	0.01
57	0.257311	0.003	0.204545	0.017
58	0.278731	0.003	0.5	0.005
59	0.276922	0.007	0.589744	0.007
60	0.294242	0.003	0.363636	0.005
61	0.264371	0.005	0.454545	0.005
62	0.294807	0.002	0.391304	0.005
63	0.290183	0.004	0.3	0.007
64	0.38095	0.002	0.666667	0.001
65	0.295502	0.002	0.25	0.009
66	0.302733	0.003	0.142857	0.007
67	0.342157	0.004	0	0.007
68	0.316692	0.004	0.52	0.009
69	0.310693	0.004	0.5	0.007
70	0.301983	0.003	0.181818	0.007
71	0.272849	0.005	0.185185	0.009
72	0.288224	0.003	0	0.007
73	0.239535	0.003	0.209302	0.01
74	0.237269	0.005	0.434783	0.007
75	0.239473	0.006	0.478261	0.007
76	0.250997	0.004	0.291667	0.011
77	0.270812	0.006	0.4	0.008
78	0.244026	0.003	0.28	0.011
79	0.252192	0.004	0.313253	0.023
80	0.252719	0.004	0.259259	0.007
81	0.261992	0.003	0.1875	0.005
82	0.238116	0.006	0.428571	0.006
83	0.263163	0.003	0.0526316	0.005
84	0.242288	0.002	0.392857	0.004
85	0.304826	0.002	0.513514	0.007
86	0.254425	0.002	0.357143	0.004
87	0.246407	0.002	0.21875	0.004
88	0.245173	0.002	0.708333	0.002
89	0.294025	0.001	0.214286	0.002
90	0.281875	0.001	0.384615	0.008
91	0.300497	0.003	0.571429	0.006
92	0.286676	0.003	0.5	0.006
93	0.277415	0.004	0.571429	0.004
94	0.323174	0.003	0.318182	0.004
95	0.331712	0.005	0.85	0.005
96	0.30082	0.003	0.378378	0.004
97	0.300577	0.002	0.1	0.003
98	0.252742	0.003	0.185185	0.008
99	0.283133	0.003	0.0333333	0.008
100	0.298538	0.002	0.25	0.003
101	0.278017	0.001	0.428571	0.003
102	0.309213	0.002	0.8	0.001
103	0.288096	0.002	0.583333	0.006
104	0.321941	0.002	0.47619	0.004
105	0.320432	0.002	0.222222	0.004
106	0.321125	0.006	0.5	0.005
107	0.317113	0.003	0.216216	0.005
108	0.296061	0.004	0.370968	0.012
109	0.317778	0.001	0.0681818	0.005
110	0.322362	0.003	0.454545	0.005
111	0.328983	0.003	0.62963	0.004
112	0.334772	0.003	0.404762	0.007
113	0.348477	0.002	0.26087	0.003
114	0.343302	0.002	0.342105	0.002
115	0.357418	0.002	0.3125	0.005
116	0.340614	0.002	0.216216	0.006
117	0.341134	0.002	0.225806	0.007
118	0.349551	0.004	0	0.006
119	0.355216	0.003	0.25	0.005
120	0.341377	0.004	0.314286	0.008
121	0.332057	0.003	0.434783	0.003
122	0.316498	0.001	0.119403	0.011
123	0.332792	0.002	0.298246	0.007
124	0.354589	0.002	0.454545	0.002
125	0.379881	0.002	0.166667	0.002
126	0.355943	0.002	0	0.001
127	0.339021	0.002	0.15	0.003
128	0.34613	0.002	0.172414	0.004
129	0.34392	0.002	0.0384615	0.006
130	0.333256	0.003	0.111111	0.005
131	0.334431	0.005	0.342105	0.005
132	0.332515	0.004	0.54902	0.012
133	0.319533	0.004	0.34375	0.007
134	0.349277	0.002	0.310345	0.004
135	0.372038	0.003	0.9	0.002
136	0.4501	0.002	0.631579	0.001
137	0.449072	0.002	0.3125	0.003
138	0.454923	0.003	0.454545	0.004
139	0.455602	0.003	0.210526	0.004
140	0.456669	0.003	0.227273	0.005
141	0.447513	0.004	0.0769231	0.005
142	0.441395	0.003	0.0909091	0.007
143	0.429315	0.005	0.527778	0.004
144	0.322671	0.003	0.518519	0.012
145	0.447982	0.004	0.173913	0.006
146	0.448731	0.003	0.125	0.003
147	0.456782	0.001	0.105263	0.004
148	0.446012	0.003	0.4375	0.004
149	0.423772	0.004	0.457143	0.005
150	0.391768	0.002	0.342105	0.006
151	0.433624	0.001	0.0769231	0.003
152	0.439437	0.002	0.333333	0.002
153	0.438902	0.002	0.434783	0.006
154	0.424578	0.002	0.464286	0.005
155	0.34049	0.003	0.192982	0.008
156	0.450075	0.003	0.333333	0.004
157	0.415839	0.003	0.653846	0.006
158	0.422288	0.004	0.24	0.007
159	0.374198	0.003	0.18	0.006
160	0.382641	0.002	0.319149	0.006
161	0.440925	0.003	0.411765	0.003
162	0.410052	0.003	0.666667	0.005
163	0.442715	0.002	0.0909091	0.315
164	0.394455	0.004	0.212121	0.006
165	0.362531	0.003	0.355932	0.008
166	0.369933	0.004	0.271186	0.026
167	0.381739	0.002	0.0666667	0.015
168	0.390941	0.003	0.357143	0.002
169	0.405273	0.002	0.384615	0.005
170	0.339762	0.004	0.16129	0.009
171	0.448078	0.003	0	0.003
172	0.276848	0.003	0.168539	0.006
173	0.357791	0.001	0.607143	0.012
174	0.373325	0.004	0.153846	0.006
175	0.334523	0.004	0.229167	0.012
176	0.364765	0.003	0.142857	0.007
177	0.341486	0.007	0.413793	0.004
178	0.348284	0.002	0.206897	0.003
179	0.364151	0.001	0	0.002
180	0.353992	0.002	0.190476	0.005
181	0.336196	0.004	0.205128	0.006
182	0.321253	0.003	0.125	0.013
183	0.374588	0.003	0.5	0.007
184	0.375079	0.003	0.0526316	0.005
185	0.339083	0.007	0.266667	0.018
186	0.378944	0.003	0.4375	0.007
187	0.367204	0.005	0.346154	0.004
188	0.373692	0.002	0.538462	0.002
189	0.339112	0.003	0.391304	0.005
190	0.387161	0.003	0	0.005
191	0.345215	0.003	0.36	0.007
192	0.367693	0.002	0.363636	0.004
193	0.359206	0.004	0.5	0.005
194	0.347831	0.008	0.272727	0.006
195	0.322956	0.006	0.372093	0.015
196	0.358802	0.006	0.352941	0.007
197	0.350393	0.003	0.413793	0.005
198	0.332428	0.004	0.447368	0.012
199	0.352547	0.008	0.28125	0.009
200	0.336089	0.003	0.266667	0.012
201	0.380694	0.004	0	0.009
202	0.317699	0.003	0.6	0.007
203	0.321672	0.004	0.0769231	0.005
204	0.303368	0.004	0.257143	0.01
205	0.321257	0.003	0.235294	0.011
206	0.328044	0.002	0.6875	0.005
207	0.30394	0.004	0.0666667	0.011
208	0.296376	0.003	0.292683	0.011
209	0.318717	0.003	0.153846	0.005
210	0.3051	0.003	0.4	0.008
211	0.326709	0.003	0.5	0.005
212	0.322378	0.003	0.346154	0.005
213	0.326796	0.003	0.3	0.005
214	0.256288	0.003	0.184615	0.013
215	0.322193	0.002	0.357143	0.002
216	0.330147	0.001	0.625	0.002
217	0.32042	0.001	0.551724	0.002
218	0.332409	0.001	0.333333	0.007
219	0.196972	0.004	0.287234	0.039
220	0.307115	0.003	0.283019	0.007
221	0.341143	0.003	0.777778	0.003
222	0.370563	0.003	0.315789	0.005
223	0.368601	0.003	0.555556	0.006
224	0.304896	0.003	0.38806	0.008
225	0.355212	0.002	0.285714	0.006
226	0.37816	0.003	0.3	0.004
227	0.348503	0.003	0.565217	0.005
228	0.334914	0.004	0.3	0.01
229	0.371891	0.003	0.0384615	0.008
230	0.333734	0.008	0.45	0.008
231	0.322986	0.002	0.153846	0.008
232	0.35128	0.003	0.444444	0.005
233	0.383347	0.003	0.6	0.004
234	0.379986	0.003	0.461538	0.003
235	0.382842	0.002	0.142857	0.002
236	0.344432	0.001	0.136364	0.006
237	0.384658	0.004	0.423077	0.005
238	0.335162	0.003	0.45283	0.015
239	0.370555	0.003	0.242424	0.006
240	0.374684	0.005	0.153846	0.007
241	0.348872	0.004	0.346939	0.006
242	0.363326	0.002	0.326087	0.007
243	0.40769	0.002	0.375	0.005
244	0.392549	0.002	0.375	0.004
245	0.373998	0.002	0.5	0.004
246	0.33492	0.002	0.326531	0.003
247	0.364404	0.001	0.533333	0.004
248	0.375264	0.003	0.111111	0.005
249	0.3164	0.003	0.148148	0.01
250	0.399796	0.002	0	0.004
251	0.400939	0.004	0	0.005
252	0.387971	0.004	0	0.008
253	0.352136	0.004	0.489362	0.004
254	0.374901	0.002	0.266667	0.003
255	0.34029	0.003	0.5	0.004
256	0.335474	0.002	0.405405	0.008
257	0.307234	0.003	0.410959	0.006
258	0.362916	0.002	0.727273	0.002
259	0.330787	0.002	0.513514	0.005
260	0.344104	0.004	0.0882353	0.007
261	0.365419	0.002	0.444444	0.004
262	0.360989	0.003	0.25	0.004
263	0.378991	0.003	0.291667	0.005
264	0.353273	0.004	0.472222	0.012
265	0.373603	0.002	0.4375	0.003
266	0.375539	0.001	0.21875	0.005
267	0.387654	0.003	0.166667	0.008
268	0.413231	0.004	0.266667	0.004
269	0.385596	0.003	0.321429	0.003
270	0.309475	0.002	0.283784	0.007
271	0.359448	0.003	0.258065	0.007
272	0.33871	0.004	0.33871	0.015
273	0.378918	0.004	0.407407	0.005
274	0.330084	0.005	0.125	0.009
275	0.353321	0.004	0.259259	0.003
276	0.369577	0.002	0.138889	0.006
277	0.394454	0.003	0.333333	0.004
278	0.35798	0.004	0.54	0.007
279	0.36672	0.002	0.5	0.004
280	0.363549	0.001	0.310345	0.003
281	0.37782	0.002	0.305556	0.002
282	0.350667	0.004	0.25	0.005
283	0.314915	0.003	0.235294	0.007
284	0.344636	0.005	0.285714	0.005
285	0.32565	0.004	0.254902	0.006
286	0.338077	0.006	0.285714	0.007
287	0.371532	0.004	0.178571	0.006
288	0.332464	0.004	0.388889	0.006
289	0.36529	0.003	0.311111	0.004
290	0.383368	0.001	0.352941	0.005
291	0.350951	0.003	0.333333	0.012
292	0.376126	0.002	0.5	0.003
293	0.35044	0.002	0.181818	0.003
294	0.342571	0.001	0.444444	0.003
295	0.341043	0.003	0.196078	0.018
296	0.374824	0.004	0.171429	0.007
297	0.359805	0.004	0.411765	0.003
298	0.364266	0.003	0.212121	0.01
299	0.346246	0.002	0.309524	0.004
300	0.363818	0.001	0.24	0.003
301	0.37333	0.002	0.5	0.007
302	0.36301	0.004	0.181818	0.005
303	0.364854	0.003	0.1875	0.007
304	0.4083	0.001	0.545455	0.002
305	0.384462	0.002	0.242424	0.002
306	0.382378	0.002	0.314286	0.004
307	0.345301	0.002	0.225806	0.015
308	0.366662	0.004	0.181818	0.008
309	0.393493	0.003	0.451613	0.006
310	0.385598	0.003	0.15	0.009
311	0.387955	0.003	0.5	0.002
312	0.372304	0.002	0.318182	0.002
313	0.390281	0.002	0.268293	0.006
314	0.374561	0.003	0.357143	0.005
315	0.295605	0.003	0.360465	0.015
316	0.360998	0.001	0.0833333	0.018
317	0.389517	0.003	0.428571	0.005
318	0.237442	0.006	0.8	0.004
319	0.384143	0.003	0.578947	0.005
320	0.363417	0.005	0.269231	0.004
321	0.383969	0.002	0.375	0.002
322	0.305791	0.002	0.315068	0.014
323	0.372191	0.002	0.294118	0.002
324	0.363972	0.002	0.5	0.006
325	0.403193	0.002	0.181818	0.005
326	0.378134	0.004	0.153846	0.004
327	0.367507	0.003	0.25	0.003
328	0.340358	0.003	0.340426	0.013
329	0.390628	0.002	0.714286	0.005
330	0.375217	0.004	0.483871	0.006
331	0.386702	0.005	0.714286	0.007
332	0.397162	0.003	0.576923	0.003
333	0.33871	0.002	0.25	0.002
334	0.380455	0.003	0.538462	0.004
335	0.371595	0.003	0.4	0.005
336	0.341248	0.003	0.285714	0.009
337	0.400398	0.001	0.55	0.002
338	0.372293	0.002	0.462963	0.007
339	0.353472	0.002	0.531915	0.01
340	0.414192	0.004	0.2	0.006
341	0.388996	0.003	0.153846	0.005
342	0.362878	0.003	0.517241	0.005
343	0.367962	0.006	0.363636	0.008
344	0.371939	0.002	0.432432	0.003
345	0.368214	0.002	0.208333	0.006
346	0.389362	0.003	0.363636	0.004
347	0.359638	0.005	0.674419	0.009
348	0.371044	0.002	0.6	0.004
349	0.371135	0.002	0.26087	0.005
350	0.391015	0.002	0.833333	0.004
351	0.427196	0.004	0.230769	0.007
352	0.405048	0.006	0.181818	0.011
353	0.393196	0.005	0.25	0.007
354	0.366261	0.003	0.366667	0.003
355	0.39193	0.002	0	0.004
356	0.37241	0.003	0.333333	0.004
357	0.375933	0.001	0	0.002
358	0.37015	0.002	0.171429	0.004
359	0.390157	0.002	0.259259	0.004
360	0.358166	0.003	0	0.015
361	0.377169	0.003	0.0731707	0.007
362	0.382987	0.003	0.206897	0.005
363	0.330123	0.003	0.244898	0.006
364	0.351595	0.004	0.297297	0.007
365	0.367498	0.006	0.25	0.006
366	0.407499	0.002	0.444444	0.002
367	0.406071	0.002	0.157895	0.005
368	0.36645	0.003	0.2	0.003
369	0.378245	0.001	0.26087	0.003
370	0.421066	0.001	0	0.002
371	0.355412	0.002	0.25	0.004
372	0.383277	0.002	0.612903	0.006
373	0.341732	0.003	0.181818	0.004
374	0.373196	0.003	0.3125	0.004
375	0.339176	0.003	0.138889	0.007
376	0.351579	0.006	0.114286	0.007
377	0.380802	0.004	0.458333	0.012
378	0.368506	0.003	0.517241	0.003
379	0.370338	0.002	0.3	0.004
380	0.321853	0.003	0.290909	0.007
381	0.278565	0.003	0.285714	0.006
382	0.368987	0.002	0.12	0.004
383	0.388232	0.002	0.388889	0.002
384	0.297662	0.002	0.145161	0.018
385	0.266514	0.004	0.144444	0.035
386	0.379155	0.003	0.0625	0.002
387	0.314722	0.002	0.237288	0.007
388	0.332572	0.003	0.152542	0.007
389	0.197698	0.003	0.268657	0.015
390	0.371289	0.002	0.318182	0.003
391	0.334686	0.003	0.228571	0.006
392	0.353019	0.002	0.142857	0.006
393	0.333783	0.004	0.425532	0.008
394	0.35986	0.004	0.326087	0.005
395	0.345641	0.004	0.606061	0.009
396	0.329616	0.003	0.52381	0.008
397	0.320179	0.002	0.333333	0.01
398	0.358905	0.001	0.433333	0.003
399	0.27875	0.002	0.25	0.002
400	0.333332	0.001	0.5	0.006
401	0.337588	0.002	0.325581	0.008
402	0.326664	0.003	0.409091	0.003
403	0.331322	0.003	0.405405	0.005
404	0.330826	0.003	0.5	0.006
405	0.338964	0.003	0.2	0.006
406	0.300348	0.003	0.27451	0.012
407	0.340917	0.002	0.4	0.003
408	0.357292	0.001	1	0.003
409	0.378201	0.002	0	0.004
410	0.314625	0.005	0.153846	0.014
411	0.357107	0.002	0	0.004
412	0.310701	0.003	0.142857	0.004
413	0.273539	0.002	0.285714	0.007
414	0.269104	0.002	0.324324	0.005
415	0.281327	0.004	0.28125	0.014
416	0.244162	0.004	0.44898	0.009
417	0.25707	0.004	0.166667	0.007
418	0.277855	0.003	0.275	0.021
419	0.282457	0.007	0.45	0.004
420	0.273136	0.003	0.392857	0.005
421	0.264571	0.004	0.5	0.005
422	0.254116	0.002	0.21875	0.003
423	0.279198	0.003	0.25	0.01
424	0.221076	0.003	0.253521	0.024
425	0.285592	0.003	0.4	0.006
426	0.280128	0.005	0.769231	0.004
427	0.307901	0.004	0.6	0.011
428	0.286833	0.003	0.458333	0.013
429	0.291905	0.002	0.472222	0.004
430	0.294482	0.002	0.0833333	0.003
431	0.26401	0.002	0.347826	0.008
432	0.317549	0.003	0.454545	0.006
433	0.25895	0.003	0.428571	0.01
434	0.28729	0.003	0.433962	0.009
435	0.30905	0.003	0.473684	0.005
436	0.307555	0.002	0.375	0.007
437	0.273198	0.004	0	0.005
438	0.276609	0.003	0.216216	0.01
439	0.319273	0.003	0.619048	0.005
440	0.322832	0.004	0.428571	0.009
441	0.280971	0.003	0.272727	0.004
442	0.31155	0.004	0.565217	0.003
443	0.282849	0.003	0.409091	0.005
444	0.302836	0.004	0.555556	0.004
445	0.304705	0.002	0.153846	0.005
446	0.295005	0.002	0.294118	0.002
447	0.319615	0.001	0.352941	0.003
448	0.305962	0.003	0.481481	0.006
449	0.301496	0.003	0.111111	0.005
450	0.280489	0.003	0.166667	0.007
451	0.312192	0.002	0.3	0.005
452	0.295815	0.003	0.25	0.009
453	0.272301	0.004	0.265306	0.008
454	0.275616	0.004	0.311111	0.01
455	0.302853	0.004	0	0.004
456	0.304312	0.002	0	0.009
457	0.264405	0.002	0.272727	0.004
458	0.285729	0.002	0.333333	0.005
459	0.28429	0.003	0.136364	0.006
460	0.289735	0.003	0.733333	0.004
461	0.289642	0.002	0.354839	0.005
462	0.302236	0.003	0.26087	0.006
463	0.279876	0.004	0.344828	0.006
464	0.244379	0.004	0.385965	0.009
465	0.283162	0.004	0.416667	0.007
466	0.297541	0.004	0.466667	0.002
467	0.254807	0.002	0.444444	0.004
468	0.271291	0.003	0.533333	0.004
469	0.274189	0.003	0.2	0.001
470	0.286326	0.001	0.526316	0.002
471	0.286935	0.002	0.444444	0.002
472	0.287096	0.003	0.541667	0.005
473	0.300484	0.003	0.466667	0.005
474	0.287321	0.003	0.222222	0.003
475	0.266164	0.002	0.21875	0.009
476	0.221554	0.005	0.235294	0.011
477	0.268368	0.004	0.439024	0.008
478	0.290812	0.003	0.482759	0.004
479	0.294483	0.003	0.375	0.002
480	0.267796	0.002	0.352941	0.003
481	0.254439	0.002	0.212121	0.005
482	0.270884	0.002	0.538462	0.004
483	0.243863	0.003	0.3	0.015
484	0.283734	0.003	0.571429	0.003
485	0.297152	0.003	0.454545	0.005
486	0.303621	0.003	0.5	0.006
487	0.298309	0.003	1	0.005
488	0.338179	0.003	0.365854	0.009
489	0.32448	0.004	0.457143	0.006
490	0.356876	0.002	0.333333	0.003
491	0.35851	0.002	0.522727	0.006
492	0.329297	0.003	0.275	0.005
493	0.363754	0.002	0.413793	0.002
494	0.327872	0.001	0.25	0.006
495	0.408761	0.002	0.333333	0.005
496	0.345419	0.003	0.205128	0.006
497	0.386332	0.002	0.272727	0.005
498	0.368907	0.003	0.227273	0.004
499	0.376144	0.002	0	0.004
500	0.384489	0.003	0.0555556	0.006
501	0.355979	0.004	0.588235	0.007
502	0.322128	0.007	0.508197	0.013
503	0.327829	0.003	0.327586	0.007
504	0.368139	0.002	0.592593	0.002
505	0.368618	0.002	0.25	0.002
506	0.328822	0.003	0.142857	0.005
507	0.411273	0.003	0.5	0.004
508	0.362611	0.003	0.529412	0.004
509	0.373716	0.003	0.0714286	0.004
510	0.31198	0.004	0.264706	0.017
511	0.377208	0.003	0.52	0.007
512	0.395928	0.006	0.384615	0.005
513	0.372565	0.003	0.322581	0.002
514	0.302582	0.002	0.369048	0.017
515	0.357946	0.003	0.4	0.004
516	0.303475	0.003	0.6	0.005
517	0.375441	0.002	0.142857	0.003
518	0.401947	0.003	0.5	0.004
519	0.377711	0.003	0.714286	0.006
520	0.424561	0.003	0.461538	0.007
521	0.389918	0.003	0.4375	0.007
522	0.377414	0.004	0.25	0.009
523	0.402525	0.004	0.5	0.004
524	0.35883	0.002	0.384615	0.007
525	0.3719	0.003	0.390244	0.006
526	0.404401	0.002	0.170732	0.014
527	0.322861	0.003	0.25	0.005
528	0.398835	0.003	0.47619	0.004
529	0.380183	0.003	0.5	0.005
530	0.394146	0.003	0.472222	0.008
531	0.42564	0.004	0	0.004
532	0.371903	0.004	0.125	0.01
533	0.361087	0.004	0.4	0.005
534	0.286471	0.002	0.307692	0.014
535	0.336567	0.002	0.289474	0.002
536	0.393285	0.001	0.421053	0.002
537	0.36635	0.002	0.432432	0.005
538	0.353149	0.004	0.272727	0.004
539	0.291581	0.003	0.446429	0.016
540	0.341598	0.003	0.409836	0.015
541	0.3926	0.003	0.285714	0.007
542	0.365734	0.006	0.142857	0.008
543	0.399358	0.001	0.411765	0.005
544	0.37201	0.003	0.347826	0.005
545	0.400297	0.002	0.181818	0.002
546	0.341386	0.002	0.25	0.008
547	0.332011	0.003	0.313726	0.008
548	0.375257	0.003	0.166667	0.003
549	0.407398	0.003	0	0.004
550	0.315509	0.004	0.5	0.014
551	0.308469	0.003	0.419355	0.012
552	0.342014	0.003	0.157895	0.005
553	0.340686	0.002	0.255814	0.01
554	0.333376	0.003	0.5	0.003
555	0.392939	0.002	0.333333	0.002
556	0.350129	0.001	0	0.003
557	0.334917	0.003	0.27027	0.007
558	0.330021	0.004	0.342857	0.006
559	0.361915	0.003	0	0.007
560	0.234534	0.005	0.259259	0.014
561	0.301049	0.004	0.244444	0.013
562	0.334441	0.004	0.277778	0.004
563	0.351502	0.003	0.315789	0.005
564	0.340456	0.002	0.166667	0.003
565	0.370631	0.001	0	0.002
566	0.305064	0.002	0.350877	0.008
567	0.340575	0.002	0.478261	0.005
568	0.29359	0.003	0.2	0.01
569	0.346253	0.003	0.5	0.005
570	0.332817	0.003	0.32	0.008
571	0.271892	0.004	0.125	0.006
572	0.324936	0.005	0.405405	0.009
573	0.305033	0.003	0.350877	0.004
574	0.340755	0.002	0.310345	0.004
575	0.307608	0.003	0.05	0.005
576	0.34134	0.002	0.25	0.002
577	0.332188	0.002	0.26087	0.002
578	0.314916	0.003	0.355556	0.004
579	0.342143	0.004	0.695652	0.012
580	0.329956	0.002	0.322581	0.005
581	0.309486	0.004	0.354167	0.008
582	0.286288	0.003	0.105263	0.006
583	0.327711	0.003	0.321429	0.007
584	0.337776	0.003	0.35	0.01
585	0.332432	0.002	0.25	0.002
586	0.349134	0.003	0.382353	0.006
587	0.344906	0.003	0.380952	0.005
588	0.337221	0.003	0.333333	0.003
589	0.293523	0.003	0.255814	0.005
590	0.343339	0.001	0.214286	0.002
591	0.307103	0.002	0.4	0.005
592	0.354279	0.002	0.333333	0.003
593	0.316187	0.003	0.322581	0.007
594	0.305639	0.003	0.392857	0.005
595	0.337808	0.002	0.411765	0.006
596	0.299636	0.004	0.205128	0.012
597	0.342405	0.004	0.55814	0.005
598	0.346468	0.001	0.0888889	0.019
599	0.333059	0.002	0.666667	0.006
600	0.33382	0.002	0.307692	0.011
601	0.339385	0.004	0.323529	0.006
602	0.304404	0.002	0.162791	0.009
603	0.315042	0.004	0.405405	0.006
604	0.355307	0.002	0.15	0.007
605	0.312579	0.004	0.163265	0.008
606	0.290607	0.002	0.0769231	0.018
607	0.273444	0.003	0.465116	0.004
608	0.32398	0.003	0.214286	0.002
609	0.313946	0.002	0.153846	0.002
610	0.331513	0.002	0.289474	0.004
611	0.317953	0.003	0.153846	0.005
612	0.335966	0.002	0.607143	0.005
613	0.359116	0.003	0.451613	0.007
614	0.315936	0.004	0.130435	0.006
615	0.310913	0.003	0.2	0.006
616	0.358417	0.006	0.333333	0.005
617	0.357464	0.002	0.230769	0.002
618	0.342354	0.002	0	0.007
619	0.340776	0.004	0.269231	0.005
620	0.308912	0.003	0.318182	0.004
621	0.326726	0.004	0.133333	0.004
622	0.331063	0.003	0.238095	0.007
623	0.342448	0.002	0.0555556	0.005
624	0.335178	0.004	0.419355	0.006
625	0.361169	0.006	0.195652	0.008
626	0.287903	0.003	0.4	0.011
627	0.29718	0.004	0.309524	0.008
628	0.297026	0.007	0.47619	0.011
629	0.376578	0.003	0.45	0.01
630	0.303265	0.004	0.264151	0.013
631	0.340706	0.004	0.41791	0.023
632	0.301016	0.004	0.5	0.008
633	0.321022	0.004	0.121212	0.007
634	0.336026	0.005	0.315789	0.012
635	0.337623	0.004	0.321429	0.009
636	0.324232	0.004	0.315789	0.015
637	0.290413	0.003	0.333333	0.002
638	0.335575	0.001	0.588235	0.003
639	0.360822	0.003	0.404762	0.006
640	0.346732	0.001	0	0.005
641	0.288669	0.004	0.22807	0.019
642	0.286188	0.005	0.233333	0.006
643	0.325981	0.003	0.727273	0.005
644	0.328859	0.005	0.692308	0.007
645	0.346594	0.002	0.416667	0.006
646	0.307711	0.006	0.219512	0.016
647	0.302093	0.003	0.2	0.008
648	0.257876	0.004	0.178218	0.042
649	0.355905	0.002	0.307692	0.003
650	0.331688	0.004	0.25	0.005
651	0.287262	0.004	0.209302	0.007
652	0.33005	0.003	0.4	0.005
653	0.335702	0.004	0.222222	0.004
654	0.343957	0.004	0.2	0.006
655	0.350657	0.007	0.3125	0.005
656	0.327391	0.004	0.0909091	0.002
657	0.290096	0.002	0.301587	0.018
658	0.327437	0.002	0.181818	0.004
659	0.319192	0.002	0.214286	0.004
660	0.328955	0.001	0.0625	0.003
661	0.214633	0.003	0.37	0.032
662	0.329519	0.003	0.5	0.006
663	0.281371	0.004	0.305556	0.005
664	0.32548	0.003	0.285714	0.002
665	0.296768	0.002	0.375	0.002
666	0.328086	0.003	0.52	0.005
667	0.359306	0.004	0.333333	0.006
668	0.370151	0.002	0.333333	0.003
669	0.280982	0.003	0.55102	0.003
670	0.315134	0.002	0.138889	0.003
671	0.322646	0.001	0.64	0.005
672	0.319459	0.003	0.571429	0.003
673	0.295802	0.003	0.264151	0.029
674	0.303468	0.005	0.135135	0.009
675	0.317774	0.002	0.1	0.003
676	0.347522	0.002	0.439024	0.005
677	0.311073	0.002	0.0769231	0.004
678	0.340468	0.002	0.857143	0.002
679	0.330832	0.002	0.571429	0.003
680	0.286818	0.002	0.166667	0.005
681	0.377631	0.004	0.625	0.004
682	0.311641	0.004	0.230769	0.004
683	0.364801	0.003	0.4	0.005
684	0.322844	0.003	0.65625	0.006
685	0.32041	0.004	0.428571	0.005
686	0.326174	0.004	0.309524	0.009
687	0.347171	0.006	0	0.006
688	0.318676	0.002	0.139535	0.011
689	0.328972	0.004	0.257143	0.008
690	0.329645	0.002	0.0588235	0.005
691	0.348802	0.001	0	0.002
692	0.267758	0.002	0.142857	0.004
693	0.32312	0.003	0.296296	0.005
694	0.301694	0.003	0.470588	0.004
695	0.309876	0.003	0.176471	0.005
696	0.325766	0.003	0	0.007
697	0.345888	0.003	0.129032	0.011
698	0.309481	0.004	0.25	0.005
699	0.360638	0.001	0.142857	0.007
700	0.32191	0.003	0.368421	0.007
701	0.311608	0.003	0.5	0.005
702	0.357405	0.002	0.170732	0.005
703	0.295364	0.001	0.354167	0.003
704	0.345317	0.002	0.322581	0.007
705	0.332055	0.002	0.272727	0.004
706	0.329609	0.002	0.32	0.005
707	0.33019	0.004	0.541667	0.007
708	0.345409	0.004	0.396825	0.02
709	0.333848	0.002	0.416667	0.003
710	0.322991	0.002	0.0888889	0.008
711	0.284319	0.003	0.292683	0.008
712	0.32011	0.003	0.0784314	0.01
713	0.325863	0.001	0.047619	0.003
714	0.335122	0.002	0.142857	0.007
715	0.359791	0.003	0.363636	0.004
716	0.362995	0.003	0.5	0.004
717	0.306432	0.005	0.222222	0.006
718	0.307772	0.004	0.327273	0.006
719	0.31138	0.005	0.207547	0.012
720	0.327013	0.001	0.294118	0.004
721	0.346749	0.002	0.138889	0.007
722	0.37246	0.004	0.2	0.004
723	0.352619	0.003	0.483871	0.005
724	0.345579	0.002	0.56	0.003
725	0.331956	0.001	0.28	0.003
726	0.276998	0.002	0.333333	0.005
727	0.330945	0.002	0.178571	0.005
728	0.286605	0.002	0.163934	0.006
729	0.298924	0.001	0.176471	0.007
730	0.323682	0.003	0.25	0.009
731	0.359662	0.004	0.363636	0.01
732	0.312693	0.004	0.363636	0.005
733	0.31458	0.004	0.115385	0.006
734	0.303767	0.003	0.5	0.013
735	0.338163	0.004	0.3125	0.005
736	0.265471	0.003	0.434783	0.009
737	0.327626	0.003	0.542857	0.007
738	0.29712	0.009	0.0526316	0.007
739	0.317648	0.003	0.636364	0.007
740	0.306812	0.002	0.333333	0.017
741	0.259993	0.002	0.147541	0.016
742	0.278461	0.002	0	0.004
743	0.315269	0.002	0.333333	0.009
744	0.314364	0.004	0.210526	0.006
745	0.345133	0.002	0.392857	0.007
746	0.338589	0.006	0.309859	0.012
747	0.245484	0.002	0.305556	0.008
748	0.332984	0.002	0.608696	0.006
749	0.315116	0.004	0.4	0.003
750	0.290726	0.004	0.169492	0.009
751	0.355049	0.003	0.416667	0.004
752	0.271958	0.003	0.293103	0.006
753	0.314764	0.001	0.209302	0.007
754	0.319841	0.003	0.268293	0.009
